[
  {
    "low": 1,
    "high": 77.82,
    "atar": "< 30"
  },
  {
    "low": 77.83,
    "high": 77.87,
    "atar": 30
  },
  {
    "low": 77.88,
    "high": 77.95,
    "atar": 30.05
  },
  {
    "low": 77.96,
    "high": 78.01,
    "atar": 30.1
  },
  {
    "low": 78.02,
    "high": 78.06,
    "atar": 30.15
  },
  {
    "low": 78.07,
    "high": 78.12,
    "atar": 30.2
  },
  {
    "low": 78.13,
    "high": 78.19,
    "atar": 30.25
  },
  {
    "low": 78.2,
    "high": 78.23,
    "atar": 30.3
  },
  {
    "low": 78.24,
    "high": 78.31,
    "atar": 30.35
  },
  {
    "low": 78.32,
    "high": 78.39,
    "atar": 30.4
  },
  {
    "low": 78.4,
    "high": 78.46,
    "atar": 30.45
  },
  {
    "low": 78.47,
    "high": 78.51,
    "atar": 30.5
  },
  {
    "low": 78.52,
    "high": 78.59,
    "atar": 30.55
  },
  {
    "low": 78.6,
    "high": 78.64,
    "atar": 30.6
  },
  {
    "low": 78.65,
    "high": 78.73,
    "atar": 30.65
  },
  {
    "low": 78.74,
    "high": 78.8,
    "atar": 30.7
  },
  {
    "low": 78.81,
    "high": 78.87,
    "atar": 30.75
  },
  {
    "low": 78.88,
    "high": 78.94,
    "atar": 30.8
  },
  {
    "low": 78.95,
    "high": 79.03,
    "atar": 30.85
  },
  {
    "low": 79.04,
    "high": 79.08,
    "atar": 30.9
  },
  {
    "low": 79.09,
    "high": 79.16,
    "atar": 30.95
  },
  {
    "low": 79.17,
    "high": 79.23,
    "atar": 31
  },
  {
    "low": 79.24,
    "high": 79.3,
    "atar": 31.05
  },
  {
    "low": 79.31,
    "high": 79.35,
    "atar": 31.1
  },
  {
    "low": 79.36,
    "high": 79.41,
    "atar": 31.15
  },
  {
    "low": 79.42,
    "high": 79.48,
    "atar": 31.2
  },
  {
    "low": 79.49,
    "high": 79.59,
    "atar": 31.25
  },
  {
    "low": 79.6,
    "high": 79.65,
    "atar": 31.3
  },
  {
    "low": 79.66,
    "high": 79.72,
    "atar": 31.35
  },
  {
    "low": 79.73,
    "high": 79.79,
    "atar": 31.4
  },
  {
    "low": 79.8,
    "high": 79.86,
    "atar": 31.45
  },
  {
    "low": 79.87,
    "high": 79.92,
    "atar": 31.5
  },
  {
    "low": 79.93,
    "high": 79.98,
    "atar": 31.55
  },
  {
    "low": 79.99,
    "high": 80.06,
    "atar": 31.6
  },
  {
    "low": 80.07,
    "high": 80.15,
    "atar": 31.65
  },
  {
    "low": 80.16,
    "high": 80.21,
    "atar": 31.7
  },
  {
    "low": 80.22,
    "high": 80.25,
    "atar": 31.75
  },
  {
    "low": 80.26,
    "high": 80.31,
    "atar": 31.8
  },
  {
    "low": 80.32,
    "high": 80.39,
    "atar": 31.85
  },
  {
    "low": 80.4,
    "high": 80.46,
    "atar": 31.9
  },
  {
    "low": 80.47,
    "high": 80.53,
    "atar": 31.95
  },
  {
    "low": 80.54,
    "high": 80.59,
    "atar": 32
  },
  {
    "low": 80.6,
    "high": 80.66,
    "atar": 32.05
  },
  {
    "low": 80.67,
    "high": 80.7,
    "atar": 32.1
  },
  {
    "low": 80.71,
    "high": 80.74,
    "atar": 32.15
  },
  {
    "low": 80.75,
    "high": 80.82,
    "atar": 32.2
  },
  {
    "low": 80.83,
    "high": 80.9,
    "atar": 32.25
  },
  {
    "low": 80.91,
    "high": 80.96,
    "atar": 32.3
  },
  {
    "low": 80.97,
    "high": 81.02,
    "atar": 32.35
  },
  {
    "low": 81.03,
    "high": 81.1,
    "atar": 32.4
  },
  {
    "low": 81.11,
    "high": 81.15,
    "atar": 32.45
  },
  {
    "low": 81.16,
    "high": 81.2,
    "atar": 32.5
  },
  {
    "low": 81.21,
    "high": 81.26,
    "atar": 32.55
  },
  {
    "low": 81.27,
    "high": 81.34,
    "atar": 32.6
  },
  {
    "low": 81.35,
    "high": 81.41,
    "atar": 32.65
  },
  {
    "low": 81.42,
    "high": 81.47,
    "atar": 32.7
  },
  {
    "low": 81.48,
    "high": 81.53,
    "atar": 32.75
  },
  {
    "low": 81.54,
    "high": 81.58,
    "atar": 32.8
  },
  {
    "low": 81.59,
    "high": 81.62,
    "atar": 32.85
  },
  {
    "low": 81.63,
    "high": 81.68,
    "atar": 32.9
  },
  {
    "low": 81.69,
    "high": 81.74,
    "atar": 32.95
  },
  {
    "low": 81.75,
    "high": 81.81,
    "atar": 33
  },
  {
    "low": 81.82,
    "high": 81.88,
    "atar": 33.05
  },
  {
    "low": 81.89,
    "high": 81.96,
    "atar": 33.1
  },
  {
    "low": 81.97,
    "high": 82.03,
    "atar": 33.15
  },
  {
    "low": 82.04,
    "high": 82.12,
    "atar": 33.2
  },
  {
    "low": 82.13,
    "high": 82.17,
    "atar": 33.25
  },
  {
    "low": 82.18,
    "high": 82.26,
    "atar": 33.3
  },
  {
    "low": 82.27,
    "high": 82.32,
    "atar": 33.35
  },
  {
    "low": 82.33,
    "high": 82.39,
    "atar": 33.4
  },
  {
    "low": 82.4,
    "high": 82.45,
    "atar": 33.45
  },
  {
    "low": 82.46,
    "high": 82.5,
    "atar": 33.5
  },
  {
    "low": 82.51,
    "high": 82.58,
    "atar": 33.55
  },
  {
    "low": 82.59,
    "high": 82.66,
    "atar": 33.6
  },
  {
    "low": 82.67,
    "high": 82.74,
    "atar": 33.65
  },
  {
    "low": 82.75,
    "high": 82.79,
    "atar": 33.7
  },
  {
    "low": 82.8,
    "high": 82.86,
    "atar": 33.75
  },
  {
    "low": 82.87,
    "high": 82.92,
    "atar": 33.8
  },
  {
    "low": 82.93,
    "high": 82.97,
    "atar": 33.85
  },
  {
    "low": 82.98,
    "high": 83.06,
    "atar": 33.9
  },
  {
    "low": 83.07,
    "high": 83.12,
    "atar": 33.95
  },
  {
    "low": 83.13,
    "high": 83.19,
    "atar": 34
  },
  {
    "low": 83.2,
    "high": 83.24,
    "atar": 34.05
  },
  {
    "low": 83.25,
    "high": 83.31,
    "atar": 34.1
  },
  {
    "low": 83.32,
    "high": 83.38,
    "atar": 34.15
  },
  {
    "low": 83.39,
    "high": 83.44,
    "atar": 34.2
  },
  {
    "low": 83.45,
    "high": 83.51,
    "atar": 34.25
  },
  {
    "low": 83.52,
    "high": 83.57,
    "atar": 34.3
  },
  {
    "low": 83.58,
    "high": 83.63,
    "atar": 34.35
  },
  {
    "low": 83.64,
    "high": 83.69,
    "atar": 34.4
  },
  {
    "low": 83.7,
    "high": 83.75,
    "atar": 34.45
  },
  {
    "low": 83.76,
    "high": 83.8,
    "atar": 34.5
  },
  {
    "low": 83.81,
    "high": 83.87,
    "atar": 34.55
  },
  {
    "low": 83.88,
    "high": 83.92,
    "atar": 34.6
  },
  {
    "low": 83.93,
    "high": 83.97,
    "atar": 34.65
  },
  {
    "low": 83.98,
    "high": 84.06,
    "atar": 34.7
  },
  {
    "low": 84.07,
    "high": 84.12,
    "atar": 34.75
  },
  {
    "low": 84.13,
    "high": 84.19,
    "atar": 34.8
  },
  {
    "low": 84.2,
    "high": 84.26,
    "atar": 34.85
  },
  {
    "low": 84.27,
    "high": 84.31,
    "atar": 34.9
  },
  {
    "low": 84.32,
    "high": 84.36,
    "atar": 34.95
  },
  {
    "low": 84.37,
    "high": 84.42,
    "atar": 35
  },
  {
    "low": 84.43,
    "high": 84.48,
    "atar": 35.05
  },
  {
    "low": 84.49,
    "high": 84.55,
    "atar": 35.1
  },
  {
    "low": 84.56,
    "high": 84.62,
    "atar": 35.15
  },
  {
    "low": 84.63,
    "high": 84.66,
    "atar": 35.2
  },
  {
    "low": 84.67,
    "high": 84.79,
    "atar": 35.25
  },
  {
    "low": 84.8,
    "high": 84.86,
    "atar": 35.3
  },
  {
    "low": 84.87,
    "high": 84.94,
    "atar": 35.35
  },
  {
    "low": 84.95,
    "high": 85,
    "atar": 35.4
  },
  {
    "low": 85.01,
    "high": 85.07,
    "atar": 35.45
  },
  {
    "low": 85.08,
    "high": 85.14,
    "atar": 35.5
  },
  {
    "low": 85.15,
    "high": 85.21,
    "atar": 35.55
  },
  {
    "low": 85.22,
    "high": 85.3,
    "atar": 35.6
  },
  {
    "low": 85.31,
    "high": 85.37,
    "atar": 35.65
  },
  {
    "low": 85.38,
    "high": 85.42,
    "atar": 35.7
  },
  {
    "low": 85.43,
    "high": 85.5,
    "atar": 35.75
  },
  {
    "low": 85.51,
    "high": 85.57,
    "atar": 35.8
  },
  {
    "low": 85.58,
    "high": 85.65,
    "atar": 35.85
  },
  {
    "low": 85.66,
    "high": 85.73,
    "atar": 35.9
  },
  {
    "low": 85.74,
    "high": 85.77,
    "atar": 35.95
  },
  {
    "low": 85.78,
    "high": 85.86,
    "atar": 36
  },
  {
    "low": 85.87,
    "high": 85.91,
    "atar": 36.05
  },
  {
    "low": 85.92,
    "high": 85.99,
    "atar": 36.1
  },
  {
    "low": 86,
    "high": 86.05,
    "atar": 36.15
  },
  {
    "low": 86.06,
    "high": 86.1,
    "atar": 36.2
  },
  {
    "low": 86.11,
    "high": 86.18,
    "atar": 36.25
  },
  {
    "low": 86.19,
    "high": 86.24,
    "atar": 36.3
  },
  {
    "low": 86.25,
    "high": 86.29,
    "atar": 36.35
  },
  {
    "low": 86.3,
    "high": 86.34,
    "atar": 36.4
  },
  {
    "low": 86.35,
    "high": 86.41,
    "atar": 36.45
  },
  {
    "low": 86.42,
    "high": 86.45,
    "atar": 36.5
  },
  {
    "low": 86.46,
    "high": 86.51,
    "atar": 36.55
  },
  {
    "low": 86.52,
    "high": 86.59,
    "atar": 36.6
  },
  {
    "low": 86.6,
    "high": 86.66,
    "atar": 36.65
  },
  {
    "low": 86.67,
    "high": 86.75,
    "atar": 36.7
  },
  {
    "low": 86.76,
    "high": 86.79,
    "atar": 36.75
  },
  {
    "low": 86.8,
    "high": 86.84,
    "atar": 36.8
  },
  {
    "low": 86.85,
    "high": 86.92,
    "atar": 36.85
  },
  {
    "low": 86.93,
    "high": 86.97,
    "atar": 36.9
  },
  {
    "low": 86.98,
    "high": 87.04,
    "atar": 36.95
  },
  {
    "low": 87.05,
    "high": 87.1,
    "atar": 37
  },
  {
    "low": 87.11,
    "high": 87.18,
    "atar": 37.05
  },
  {
    "low": 87.19,
    "high": 87.22,
    "atar": 37.1
  },
  {
    "low": 87.23,
    "high": 87.29,
    "atar": 37.15
  },
  {
    "low": 87.3,
    "high": 87.36,
    "atar": 37.2
  },
  {
    "low": 87.37,
    "high": 87.42,
    "atar": 37.25
  },
  {
    "low": 87.43,
    "high": 87.48,
    "atar": 37.3
  },
  {
    "low": 87.49,
    "high": 87.56,
    "atar": 37.35
  },
  {
    "low": 87.57,
    "high": 87.62,
    "atar": 37.4
  },
  {
    "low": 87.63,
    "high": 87.67,
    "atar": 37.45
  },
  {
    "low": 87.68,
    "high": 87.77,
    "atar": 37.5
  },
  {
    "low": 87.78,
    "high": 87.84,
    "atar": 37.55
  },
  {
    "low": 87.85,
    "high": 87.91,
    "atar": 37.6
  },
  {
    "low": 87.92,
    "high": 87.99,
    "atar": 37.65
  },
  {
    "low": 88,
    "high": 88.05,
    "atar": 37.7
  },
  {
    "low": 88.06,
    "high": 88.11,
    "atar": 37.75
  },
  {
    "low": 88.12,
    "high": 88.17,
    "atar": 37.8
  },
  {
    "low": 88.18,
    "high": 88.24,
    "atar": 37.85
  },
  {
    "low": 88.25,
    "high": 88.3,
    "atar": 37.9
  },
  {
    "low": 88.31,
    "high": 88.36,
    "atar": 37.95
  },
  {
    "low": 88.37,
    "high": 88.42,
    "atar": 38
  },
  {
    "low": 88.43,
    "high": 88.49,
    "atar": 38.05
  },
  {
    "low": 88.5,
    "high": 88.55,
    "atar": 38.1
  },
  {
    "low": 88.56,
    "high": 88.62,
    "atar": 38.15
  },
  {
    "low": 88.63,
    "high": 88.67,
    "atar": 38.2
  },
  {
    "low": 88.68,
    "high": 88.73,
    "atar": 38.25
  },
  {
    "low": 88.74,
    "high": 88.77,
    "atar": 38.3
  },
  {
    "low": 88.78,
    "high": 88.83,
    "atar": 38.35
  },
  {
    "low": 88.84,
    "high": 88.89,
    "atar": 38.4
  },
  {
    "low": 88.9,
    "high": 88.94,
    "atar": 38.45
  },
  {
    "low": 88.95,
    "high": 89.01,
    "atar": 38.5
  },
  {
    "low": 89.02,
    "high": 89.09,
    "atar": 38.55
  },
  {
    "low": 89.1,
    "high": 89.17,
    "atar": 38.6
  },
  {
    "low": 89.18,
    "high": 89.22,
    "atar": 38.65
  },
  {
    "low": 89.23,
    "high": 89.28,
    "atar": 38.7
  },
  {
    "low": 89.29,
    "high": 89.34,
    "atar": 38.75
  },
  {
    "low": 89.35,
    "high": 89.4,
    "atar": 38.8
  },
  {
    "low": 89.41,
    "high": 89.47,
    "atar": 38.85
  },
  {
    "low": 89.48,
    "high": 89.54,
    "atar": 38.9
  },
  {
    "low": 89.55,
    "high": 89.63,
    "atar": 38.95
  },
  {
    "low": 89.64,
    "high": 89.66,
    "atar": 39
  },
  {
    "low": 89.67,
    "high": 89.71,
    "atar": 39.05
  },
  {
    "low": 89.72,
    "high": 89.8,
    "atar": 39.1
  },
  {
    "low": 89.81,
    "high": 89.87,
    "atar": 39.15
  },
  {
    "low": 89.88,
    "high": 89.92,
    "atar": 39.2
  },
  {
    "low": 89.93,
    "high": 90.01,
    "atar": 39.25
  },
  {
    "low": 90.02,
    "high": 90.07,
    "atar": 39.3
  },
  {
    "low": 90.08,
    "high": 90.15,
    "atar": 39.35
  },
  {
    "low": 90.16,
    "high": 90.21,
    "atar": 39.4
  },
  {
    "low": 90.22,
    "high": 90.28,
    "atar": 39.45
  },
  {
    "low": 90.29,
    "high": 90.33,
    "atar": 39.5
  },
  {
    "low": 90.34,
    "high": 90.42,
    "atar": 39.55
  },
  {
    "low": 90.43,
    "high": 90.47,
    "atar": 39.6
  },
  {
    "low": 90.48,
    "high": 90.55,
    "atar": 39.65
  },
  {
    "low": 90.56,
    "high": 90.62,
    "atar": 39.7
  },
  {
    "low": 90.63,
    "high": 90.68,
    "atar": 39.75
  },
  {
    "low": 90.69,
    "high": 90.74,
    "atar": 39.8
  },
  {
    "low": 90.75,
    "high": 90.8,
    "atar": 39.85
  },
  {
    "low": 90.81,
    "high": 90.87,
    "atar": 39.9
  },
  {
    "low": 90.88,
    "high": 90.93,
    "atar": 39.95
  },
  {
    "low": 90.94,
    "high": 91.01,
    "atar": 40
  },
  {
    "low": 91.02,
    "high": 91.08,
    "atar": 40.05
  },
  {
    "low": 91.09,
    "high": 91.12,
    "atar": 40.1
  },
  {
    "low": 91.13,
    "high": 91.19,
    "atar": 40.15
  },
  {
    "low": 91.2,
    "high": 91.24,
    "atar": 40.2
  },
  {
    "low": 91.25,
    "high": 91.28,
    "atar": 40.25
  },
  {
    "low": 91.29,
    "high": 91.33,
    "atar": 40.3
  },
  {
    "low": 91.34,
    "high": 91.38,
    "atar": 40.35
  },
  {
    "low": 91.39,
    "high": 91.45,
    "atar": 40.4
  },
  {
    "low": 91.46,
    "high": 91.5,
    "atar": 40.45
  },
  {
    "low": 91.51,
    "high": 91.54,
    "atar": 40.5
  },
  {
    "low": 91.55,
    "high": 91.58,
    "atar": 40.55
  },
  {
    "low": 91.59,
    "high": 91.67,
    "atar": 40.6
  },
  {
    "low": 91.68,
    "high": 91.72,
    "atar": 40.65
  },
  {
    "low": 91.73,
    "high": 91.78,
    "atar": 40.7
  },
  {
    "low": 91.79,
    "high": 91.84,
    "atar": 40.75
  },
  {
    "low": 91.85,
    "high": 91.89,
    "atar": 40.8
  },
  {
    "low": 91.9,
    "high": 91.96,
    "atar": 40.85
  },
  {
    "low": 91.97,
    "high": 92.02,
    "atar": 40.9
  },
  {
    "low": 92.03,
    "high": 92.08,
    "atar": 40.95
  },
  {
    "low": 92.09,
    "high": 92.17,
    "atar": 41
  },
  {
    "low": 92.18,
    "high": 92.22,
    "atar": 41.05
  },
  {
    "low": 92.23,
    "high": 92.29,
    "atar": 41.1
  },
  {
    "low": 92.3,
    "high": 92.36,
    "atar": 41.15
  },
  {
    "low": 92.37,
    "high": 92.41,
    "atar": 41.2
  },
  {
    "low": 92.42,
    "high": 92.49,
    "atar": 41.25
  },
  {
    "low": 92.5,
    "high": 92.54,
    "atar": 41.3
  },
  {
    "low": 92.55,
    "high": 92.59,
    "atar": 41.35
  },
  {
    "low": 92.6,
    "high": 92.66,
    "atar": 41.4
  },
  {
    "low": 92.67,
    "high": 92.72,
    "atar": 41.45
  },
  {
    "low": 92.73,
    "high": 92.76,
    "atar": 41.5
  },
  {
    "low": 92.77,
    "high": 92.81,
    "atar": 41.55
  },
  {
    "low": 92.82,
    "high": 92.87,
    "atar": 41.6
  },
  {
    "low": 92.88,
    "high": 92.96,
    "atar": 41.65
  },
  {
    "low": 92.97,
    "high": 93.04,
    "atar": 41.7
  },
  {
    "low": 93.05,
    "high": 93.1,
    "atar": 41.75
  },
  {
    "low": 93.11,
    "high": 93.16,
    "atar": 41.8
  },
  {
    "low": 93.17,
    "high": 93.24,
    "atar": 41.85
  },
  {
    "low": 93.25,
    "high": 93.31,
    "atar": 41.9
  },
  {
    "low": 93.32,
    "high": 93.38,
    "atar": 41.95
  },
  {
    "low": 93.39,
    "high": 93.46,
    "atar": 42
  },
  {
    "low": 93.47,
    "high": 93.51,
    "atar": 42.05
  },
  {
    "low": 93.52,
    "high": 93.6,
    "atar": 42.1
  },
  {
    "low": 93.61,
    "high": 93.66,
    "atar": 42.15
  },
  {
    "low": 93.67,
    "high": 93.73,
    "atar": 42.2
  },
  {
    "low": 93.74,
    "high": 93.8,
    "atar": 42.25
  },
  {
    "low": 93.81,
    "high": 93.84,
    "atar": 42.3
  },
  {
    "low": 93.85,
    "high": 93.9,
    "atar": 42.35
  },
  {
    "low": 93.91,
    "high": 93.94,
    "atar": 42.4
  },
  {
    "low": 93.95,
    "high": 94,
    "atar": 42.45
  },
  {
    "low": 94.01,
    "high": 94.06,
    "atar": 42.5
  },
  {
    "low": 94.07,
    "high": 94.12,
    "atar": 42.55
  },
  {
    "low": 94.13,
    "high": 94.18,
    "atar": 42.6
  },
  {
    "low": 94.19,
    "high": 94.22,
    "atar": 42.65
  },
  {
    "low": 94.23,
    "high": 94.28,
    "atar": 42.7
  },
  {
    "low": 94.29,
    "high": 94.34,
    "atar": 42.75
  },
  {
    "low": 94.35,
    "high": 94.4,
    "atar": 42.8
  },
  {
    "low": 94.41,
    "high": 94.45,
    "atar": 42.85
  },
  {
    "low": 94.46,
    "high": 94.5,
    "atar": 42.9
  },
  {
    "low": 94.51,
    "high": 94.55,
    "atar": 42.95
  },
  {
    "low": 94.56,
    "high": 94.6,
    "atar": 43
  },
  {
    "low": 94.61,
    "high": 94.69,
    "atar": 43.05
  },
  {
    "low": 94.7,
    "high": 94.76,
    "atar": 43.1
  },
  {
    "low": 94.77,
    "high": 94.82,
    "atar": 43.15
  },
  {
    "low": 94.83,
    "high": 94.87,
    "atar": 43.2
  },
  {
    "low": 94.88,
    "high": 94.93,
    "atar": 43.25
  },
  {
    "low": 94.94,
    "high": 95.01,
    "atar": 43.3
  },
  {
    "low": 95.02,
    "high": 95.09,
    "atar": 43.35
  },
  {
    "low": 95.1,
    "high": 95.14,
    "atar": 43.4
  },
  {
    "low": 95.15,
    "high": 95.21,
    "atar": 43.45
  },
  {
    "low": 95.22,
    "high": 95.25,
    "atar": 43.5
  },
  {
    "low": 95.26,
    "high": 95.31,
    "atar": 43.55
  },
  {
    "low": 95.32,
    "high": 95.36,
    "atar": 43.6
  },
  {
    "low": 95.37,
    "high": 95.43,
    "atar": 43.65
  },
  {
    "low": 95.44,
    "high": 95.49,
    "atar": 43.7
  },
  {
    "low": 95.5,
    "high": 95.54,
    "atar": 43.75
  },
  {
    "low": 95.55,
    "high": 95.61,
    "atar": 43.8
  },
  {
    "low": 95.62,
    "high": 95.66,
    "atar": 43.85
  },
  {
    "low": 95.67,
    "high": 95.71,
    "atar": 43.9
  },
  {
    "low": 95.72,
    "high": 95.75,
    "atar": 43.95
  },
  {
    "low": 95.76,
    "high": 95.81,
    "atar": 44
  },
  {
    "low": 95.82,
    "high": 95.88,
    "atar": 44.05
  },
  {
    "low": 95.89,
    "high": 95.94,
    "atar": 44.1
  },
  {
    "low": 95.95,
    "high": 96,
    "atar": 44.15
  },
  {
    "low": 96.01,
    "high": 96.06,
    "atar": 44.2
  },
  {
    "low": 96.07,
    "high": 96.12,
    "atar": 44.25
  },
  {
    "low": 96.13,
    "high": 96.18,
    "atar": 44.3
  },
  {
    "low": 96.19,
    "high": 96.22,
    "atar": 44.35
  },
  {
    "low": 96.23,
    "high": 96.28,
    "atar": 44.4
  },
  {
    "low": 96.29,
    "high": 96.34,
    "atar": 44.45
  },
  {
    "low": 96.35,
    "high": 96.41,
    "atar": 44.5
  },
  {
    "low": 96.42,
    "high": 96.47,
    "atar": 44.55
  },
  {
    "low": 96.48,
    "high": 96.52,
    "atar": 44.6
  },
  {
    "low": 96.53,
    "high": 96.59,
    "atar": 44.65
  },
  {
    "low": 96.6,
    "high": 96.65,
    "atar": 44.7
  },
  {
    "low": 96.66,
    "high": 96.71,
    "atar": 44.75
  },
  {
    "low": 96.72,
    "high": 96.77,
    "atar": 44.8
  },
  {
    "low": 96.78,
    "high": 96.84,
    "atar": 44.85
  },
  {
    "low": 96.85,
    "high": 96.91,
    "atar": 44.9
  },
  {
    "low": 96.92,
    "high": 96.98,
    "atar": 44.95
  },
  {
    "low": 96.99,
    "high": 97.04,
    "atar": 45
  },
  {
    "low": 97.05,
    "high": 97.11,
    "atar": 45.05
  },
  {
    "low": 97.12,
    "high": 97.17,
    "atar": 45.1
  },
  {
    "low": 97.18,
    "high": 97.23,
    "atar": 45.15
  },
  {
    "low": 97.24,
    "high": 97.27,
    "atar": 45.2
  },
  {
    "low": 97.28,
    "high": 97.33,
    "atar": 45.25
  },
  {
    "low": 97.34,
    "high": 97.4,
    "atar": 45.3
  },
  {
    "low": 97.41,
    "high": 97.45,
    "atar": 45.35
  },
  {
    "low": 97.46,
    "high": 97.51,
    "atar": 45.4
  },
  {
    "low": 97.52,
    "high": 97.56,
    "atar": 45.45
  },
  {
    "low": 97.57,
    "high": 97.6,
    "atar": 45.5
  },
  {
    "low": 97.61,
    "high": 97.66,
    "atar": 45.55
  },
  {
    "low": 97.67,
    "high": 97.68,
    "atar": 45.6
  },
  {
    "low": 97.69,
    "high": 97.74,
    "atar": 45.65
  },
  {
    "low": 97.75,
    "high": 97.8,
    "atar": 45.7
  },
  {
    "low": 97.81,
    "high": 97.87,
    "atar": 45.75
  },
  {
    "low": 97.88,
    "high": 97.93,
    "atar": 45.8
  },
  {
    "low": 97.94,
    "high": 97.99,
    "atar": 45.85
  },
  {
    "low": 98,
    "high": 98.04,
    "atar": 45.9
  },
  {
    "low": 98.05,
    "high": 98.1,
    "atar": 45.95
  },
  {
    "low": 98.11,
    "high": 98.14,
    "atar": 46
  },
  {
    "low": 98.15,
    "high": 98.19,
    "atar": 46.05
  },
  {
    "low": 98.2,
    "high": 98.26,
    "atar": 46.1
  },
  {
    "low": 98.27,
    "high": 98.31,
    "atar": 46.15
  },
  {
    "low": 98.32,
    "high": 98.36,
    "atar": 46.2
  },
  {
    "low": 98.37,
    "high": 98.42,
    "atar": 46.25
  },
  {
    "low": 98.43,
    "high": 98.48,
    "atar": 46.3
  },
  {
    "low": 98.49,
    "high": 98.53,
    "atar": 46.35
  },
  {
    "low": 98.54,
    "high": 98.58,
    "atar": 46.4
  },
  {
    "low": 98.59,
    "high": 98.64,
    "atar": 46.45
  },
  {
    "low": 98.65,
    "high": 98.68,
    "atar": 46.5
  },
  {
    "low": 98.69,
    "high": 98.74,
    "atar": 46.55
  },
  {
    "low": 98.75,
    "high": 98.8,
    "atar": 46.6
  },
  {
    "low": 98.81,
    "high": 98.86,
    "atar": 46.65
  },
  {
    "low": 98.87,
    "high": 98.91,
    "atar": 46.7
  },
  {
    "low": 98.92,
    "high": 98.98,
    "atar": 46.75
  },
  {
    "low": 98.99,
    "high": 99.06,
    "atar": 46.8
  },
  {
    "low": 99.07,
    "high": 99.11,
    "atar": 46.85
  },
  {
    "low": 99.12,
    "high": 99.17,
    "atar": 46.9
  },
  {
    "low": 99.18,
    "high": 99.22,
    "atar": 46.95
  },
  {
    "low": 99.23,
    "high": 99.28,
    "atar": 47
  },
  {
    "low": 99.29,
    "high": 99.33,
    "atar": 47.05
  },
  {
    "low": 99.34,
    "high": 99.39,
    "atar": 47.1
  },
  {
    "low": 99.4,
    "high": 99.44,
    "atar": 47.15
  },
  {
    "low": 99.45,
    "high": 99.5,
    "atar": 47.2
  },
  {
    "low": 99.51,
    "high": 99.56,
    "atar": 47.25
  },
  {
    "low": 99.57,
    "high": 99.61,
    "atar": 47.3
  },
  {
    "low": 99.62,
    "high": 99.66,
    "atar": 47.35
  },
  {
    "low": 99.67,
    "high": 99.73,
    "atar": 47.4
  },
  {
    "low": 99.74,
    "high": 99.79,
    "atar": 47.45
  },
  {
    "low": 99.8,
    "high": 99.84,
    "atar": 47.5
  },
  {
    "low": 99.85,
    "high": 99.91,
    "atar": 47.55
  },
  {
    "low": 99.92,
    "high": 99.97,
    "atar": 47.6
  },
  {
    "low": 99.98,
    "high": 100.02,
    "atar": 47.65
  },
  {
    "low": 100.03,
    "high": 100.07,
    "atar": 47.7
  },
  {
    "low": 100.08,
    "high": 100.14,
    "atar": 47.75
  },
  {
    "low": 100.15,
    "high": 100.18,
    "atar": 47.8
  },
  {
    "low": 100.19,
    "high": 100.24,
    "atar": 47.85
  },
  {
    "low": 100.25,
    "high": 100.28,
    "atar": 47.9
  },
  {
    "low": 100.29,
    "high": 100.32,
    "atar": 47.95
  },
  {
    "low": 100.33,
    "high": 100.4,
    "atar": 48
  },
  {
    "low": 100.41,
    "high": 100.48,
    "atar": 48.05
  },
  {
    "low": 100.49,
    "high": 100.55,
    "atar": 48.1
  },
  {
    "low": 100.56,
    "high": 100.59,
    "atar": 48.15
  },
  {
    "low": 100.6,
    "high": 100.64,
    "atar": 48.2
  },
  {
    "low": 100.65,
    "high": 100.69,
    "atar": 48.25
  },
  {
    "low": 100.7,
    "high": 100.76,
    "atar": 48.3
  },
  {
    "low": 100.77,
    "high": 100.82,
    "atar": 48.35
  },
  {
    "low": 100.83,
    "high": 100.89,
    "atar": 48.4
  },
  {
    "low": 100.9,
    "high": 100.97,
    "atar": 48.45
  },
  {
    "low": 100.98,
    "high": 101.03,
    "atar": 48.5
  },
  {
    "low": 101.04,
    "high": 101.07,
    "atar": 48.55
  },
  {
    "low": 101.08,
    "high": 101.12,
    "atar": 48.6
  },
  {
    "low": 101.13,
    "high": 101.2,
    "atar": 48.65
  },
  {
    "low": 101.21,
    "high": 101.27,
    "atar": 48.7
  },
  {
    "low": 101.28,
    "high": 101.32,
    "atar": 48.75
  },
  {
    "low": 101.33,
    "high": 101.37,
    "atar": 48.8
  },
  {
    "low": 101.38,
    "high": 101.41,
    "atar": 48.85
  },
  {
    "low": 101.42,
    "high": 101.47,
    "atar": 48.9
  },
  {
    "low": 101.48,
    "high": 101.52,
    "atar": 48.95
  },
  {
    "low": 101.53,
    "high": 101.57,
    "atar": 49
  },
  {
    "low": 101.58,
    "high": 101.62,
    "atar": 49.05
  },
  {
    "low": 101.63,
    "high": 101.68,
    "atar": 49.1
  },
  {
    "low": 101.69,
    "high": 101.72,
    "atar": 49.15
  },
  {
    "low": 101.73,
    "high": 101.79,
    "atar": 49.2
  },
  {
    "low": 101.8,
    "high": 101.84,
    "atar": 49.25
  },
  {
    "low": 101.85,
    "high": 101.9,
    "atar": 49.3
  },
  {
    "low": 101.91,
    "high": 101.98,
    "atar": 49.35
  },
  {
    "low": 101.99,
    "high": 102.03,
    "atar": 49.4
  },
  {
    "low": 102.04,
    "high": 102.08,
    "atar": 49.45
  },
  {
    "low": 102.09,
    "high": 102.14,
    "atar": 49.5
  },
  {
    "low": 102.15,
    "high": 102.2,
    "atar": 49.55
  },
  {
    "low": 102.21,
    "high": 102.29,
    "atar": 49.6
  },
  {
    "low": 102.3,
    "high": 102.34,
    "atar": 49.65
  },
  {
    "low": 102.35,
    "high": 102.39,
    "atar": 49.7
  },
  {
    "low": 102.4,
    "high": 102.44,
    "atar": 49.75
  },
  {
    "low": 102.45,
    "high": 102.5,
    "atar": 49.8
  },
  {
    "low": 102.51,
    "high": 102.56,
    "atar": 49.85
  },
  {
    "low": 102.57,
    "high": 102.61,
    "atar": 49.9
  },
  {
    "low": 102.62,
    "high": 102.66,
    "atar": 49.95
  },
  {
    "low": 102.67,
    "high": 102.73,
    "atar": 50
  },
  {
    "low": 102.74,
    "high": 102.79,
    "atar": 50.05
  },
  {
    "low": 102.8,
    "high": 102.85,
    "atar": 50.1
  },
  {
    "low": 102.86,
    "high": 102.91,
    "atar": 50.15
  },
  {
    "low": 102.92,
    "high": 102.99,
    "atar": 50.2
  },
  {
    "low": 103,
    "high": 103.04,
    "atar": 50.25
  },
  {
    "low": 103.05,
    "high": 103.09,
    "atar": 50.3
  },
  {
    "low": 103.1,
    "high": 103.14,
    "atar": 50.35
  },
  {
    "low": 103.15,
    "high": 103.19,
    "atar": 50.4
  },
  {
    "low": 103.2,
    "high": 103.25,
    "atar": 50.45
  },
  {
    "low": 103.26,
    "high": 103.3,
    "atar": 50.5
  },
  {
    "low": 103.31,
    "high": 103.37,
    "atar": 50.55
  },
  {
    "low": 103.38,
    "high": 103.44,
    "atar": 50.6
  },
  {
    "low": 103.45,
    "high": 103.5,
    "atar": 50.65
  },
  {
    "low": 103.51,
    "high": 103.56,
    "atar": 50.7
  },
  {
    "low": 103.57,
    "high": 103.63,
    "atar": 50.75
  },
  {
    "low": 103.64,
    "high": 103.68,
    "atar": 50.8
  },
  {
    "low": 103.69,
    "high": 103.73,
    "atar": 50.85
  },
  {
    "low": 103.74,
    "high": 103.79,
    "atar": 50.9
  },
  {
    "low": 103.8,
    "high": 103.85,
    "atar": 50.95
  },
  {
    "low": 103.86,
    "high": 103.91,
    "atar": 51
  },
  {
    "low": 103.92,
    "high": 103.97,
    "atar": 51.05
  },
  {
    "low": 103.98,
    "high": 104.04,
    "atar": 51.1
  },
  {
    "low": 104.05,
    "high": 104.09,
    "atar": 51.15
  },
  {
    "low": 104.1,
    "high": 104.17,
    "atar": 51.2
  },
  {
    "low": 104.18,
    "high": 104.26,
    "atar": 51.25
  },
  {
    "low": 104.27,
    "high": 104.33,
    "atar": 51.3
  },
  {
    "low": 104.34,
    "high": 104.38,
    "atar": 51.35
  },
  {
    "low": 104.39,
    "high": 104.44,
    "atar": 51.4
  },
  {
    "low": 104.45,
    "high": 104.49,
    "atar": 51.45
  },
  {
    "low": 104.5,
    "high": 104.54,
    "atar": 51.5
  },
  {
    "low": 104.55,
    "high": 104.59,
    "atar": 51.55
  },
  {
    "low": 104.6,
    "high": 104.65,
    "atar": 51.6
  },
  {
    "low": 104.66,
    "high": 104.7,
    "atar": 51.65
  },
  {
    "low": 104.71,
    "high": 104.77,
    "atar": 51.7
  },
  {
    "low": 104.78,
    "high": 104.82,
    "atar": 51.75
  },
  {
    "low": 104.83,
    "high": 104.89,
    "atar": 51.8
  },
  {
    "low": 104.9,
    "high": 104.95,
    "atar": 51.85
  },
  {
    "low": 104.96,
    "high": 105,
    "atar": 51.9
  },
  {
    "low": 105.01,
    "high": 105.04,
    "atar": 51.95
  },
  {
    "low": 105.05,
    "high": 105.09,
    "atar": 52
  },
  {
    "low": 105.1,
    "high": 105.15,
    "atar": 52.05
  },
  {
    "low": 105.16,
    "high": 105.2,
    "atar": 52.1
  },
  {
    "low": 105.21,
    "high": 105.27,
    "atar": 52.15
  },
  {
    "low": 105.28,
    "high": 105.32,
    "atar": 52.2
  },
  {
    "low": 105.33,
    "high": 105.38,
    "atar": 52.25
  },
  {
    "low": 105.39,
    "high": 105.43,
    "atar": 52.3
  },
  {
    "low": 105.44,
    "high": 105.48,
    "atar": 52.35
  },
  {
    "low": 105.49,
    "high": 105.54,
    "atar": 52.4
  },
  {
    "low": 105.55,
    "high": 105.6,
    "atar": 52.45
  },
  {
    "low": 105.61,
    "high": 105.65,
    "atar": 52.5
  },
  {
    "low": 105.66,
    "high": 105.7,
    "atar": 52.55
  },
  {
    "low": 105.71,
    "high": 105.76,
    "atar": 52.6
  },
  {
    "low": 105.77,
    "high": 105.82,
    "atar": 52.65
  },
  {
    "low": 105.83,
    "high": 105.87,
    "atar": 52.7
  },
  {
    "low": 105.88,
    "high": 105.92,
    "atar": 52.75
  },
  {
    "low": 105.93,
    "high": 105.98,
    "atar": 52.8
  },
  {
    "low": 105.99,
    "high": 106.03,
    "atar": 52.85
  },
  {
    "low": 106.04,
    "high": 106.08,
    "atar": 52.9
  },
  {
    "low": 106.09,
    "high": 106.14,
    "atar": 52.95
  },
  {
    "low": 106.15,
    "high": 106.2,
    "atar": 53
  },
  {
    "low": 106.21,
    "high": 106.26,
    "atar": 53.05
  },
  {
    "low": 106.27,
    "high": 106.31,
    "atar": 53.1
  },
  {
    "low": 106.32,
    "high": 106.39,
    "atar": 53.15
  },
  {
    "low": 106.4,
    "high": 106.45,
    "atar": 53.2
  },
  {
    "low": 106.46,
    "high": 106.52,
    "atar": 53.25
  },
  {
    "low": 106.53,
    "high": 106.58,
    "atar": 53.3
  },
  {
    "low": 106.59,
    "high": 106.64,
    "atar": 53.35
  },
  {
    "low": 106.65,
    "high": 106.69,
    "atar": 53.4
  },
  {
    "low": 106.7,
    "high": 106.74,
    "atar": 53.45
  },
  {
    "low": 106.75,
    "high": 106.81,
    "atar": 53.5
  },
  {
    "low": 106.82,
    "high": 106.87,
    "atar": 53.55
  },
  {
    "low": 106.88,
    "high": 106.95,
    "atar": 53.6
  },
  {
    "low": 106.96,
    "high": 107.02,
    "atar": 53.65
  },
  {
    "low": 107.03,
    "high": 107.07,
    "atar": 53.7
  },
  {
    "low": 107.08,
    "high": 107.13,
    "atar": 53.75
  },
  {
    "low": 107.14,
    "high": 107.18,
    "atar": 53.8
  },
  {
    "low": 107.19,
    "high": 107.23,
    "atar": 53.85
  },
  {
    "low": 107.24,
    "high": 107.3,
    "atar": 53.9
  },
  {
    "low": 107.31,
    "high": 107.36,
    "atar": 53.95
  },
  {
    "low": 107.37,
    "high": 107.46,
    "atar": 54
  },
  {
    "low": 107.47,
    "high": 107.51,
    "atar": 54.05
  },
  {
    "low": 107.52,
    "high": 107.57,
    "atar": 54.1
  },
  {
    "low": 107.58,
    "high": 107.64,
    "atar": 54.15
  },
  {
    "low": 107.65,
    "high": 107.7,
    "atar": 54.2
  },
  {
    "low": 107.71,
    "high": 107.75,
    "atar": 54.25
  },
  {
    "low": 107.76,
    "high": 107.81,
    "atar": 54.3
  },
  {
    "low": 107.82,
    "high": 107.85,
    "atar": 54.35
  },
  {
    "low": 107.86,
    "high": 107.91,
    "atar": 54.4
  },
  {
    "low": 107.92,
    "high": 107.99,
    "atar": 54.45
  },
  {
    "low": 108,
    "high": 108.05,
    "atar": 54.5
  },
  {
    "low": 108.06,
    "high": 108.1,
    "atar": 54.55
  },
  {
    "low": 108.11,
    "high": 108.16,
    "atar": 54.6
  },
  {
    "low": 108.17,
    "high": 108.23,
    "atar": 54.65
  },
  {
    "low": 108.24,
    "high": 108.29,
    "atar": 54.7
  },
  {
    "low": 108.3,
    "high": 108.35,
    "atar": 54.75
  },
  {
    "low": 108.36,
    "high": 108.42,
    "atar": 54.8
  },
  {
    "low": 108.43,
    "high": 108.47,
    "atar": 54.85
  },
  {
    "low": 108.48,
    "high": 108.54,
    "atar": 54.9
  },
  {
    "low": 108.55,
    "high": 108.61,
    "atar": 54.95
  },
  {
    "low": 108.62,
    "high": 108.67,
    "atar": 55
  },
  {
    "low": 108.68,
    "high": 108.71,
    "atar": 55.05
  },
  {
    "low": 108.72,
    "high": 108.77,
    "atar": 55.1
  },
  {
    "low": 108.78,
    "high": 108.82,
    "atar": 55.15
  },
  {
    "low": 108.83,
    "high": 108.87,
    "atar": 55.2
  },
  {
    "low": 108.88,
    "high": 108.94,
    "atar": 55.25
  },
  {
    "low": 108.95,
    "high": 109,
    "atar": 55.3
  },
  {
    "low": 109.01,
    "high": 109.07,
    "atar": 55.35
  },
  {
    "low": 109.08,
    "high": 109.13,
    "atar": 55.4
  },
  {
    "low": 109.14,
    "high": 109.21,
    "atar": 55.45
  },
  {
    "low": 109.22,
    "high": 109.26,
    "atar": 55.5
  },
  {
    "low": 109.27,
    "high": 109.31,
    "atar": 55.55
  },
  {
    "low": 109.32,
    "high": 109.36,
    "atar": 55.6
  },
  {
    "low": 109.37,
    "high": 109.41,
    "atar": 55.65
  },
  {
    "low": 109.42,
    "high": 109.46,
    "atar": 55.7
  },
  {
    "low": 109.47,
    "high": 109.54,
    "atar": 55.75
  },
  {
    "low": 109.55,
    "high": 109.6,
    "atar": 55.8
  },
  {
    "low": 109.61,
    "high": 109.66,
    "atar": 55.85
  },
  {
    "low": 109.67,
    "high": 109.73,
    "atar": 55.9
  },
  {
    "low": 109.74,
    "high": 109.79,
    "atar": 55.95
  },
  {
    "low": 109.8,
    "high": 109.86,
    "atar": 56
  },
  {
    "low": 109.87,
    "high": 109.93,
    "atar": 56.05
  },
  {
    "low": 109.94,
    "high": 109.99,
    "atar": 56.1
  },
  {
    "low": 110,
    "high": 110.06,
    "atar": 56.15
  },
  {
    "low": 110.07,
    "high": 110.13,
    "atar": 56.2
  },
  {
    "low": 110.14,
    "high": 110.18,
    "atar": 56.25
  },
  {
    "low": 110.19,
    "high": 110.21,
    "atar": 56.3
  },
  {
    "low": 110.22,
    "high": 110.27,
    "atar": 56.35
  },
  {
    "low": 110.28,
    "high": 110.33,
    "atar": 56.4
  },
  {
    "low": 110.34,
    "high": 110.4,
    "atar": 56.45
  },
  {
    "low": 110.41,
    "high": 110.44,
    "atar": 56.5
  },
  {
    "low": 110.45,
    "high": 110.5,
    "atar": 56.55
  },
  {
    "low": 110.51,
    "high": 110.56,
    "atar": 56.6
  },
  {
    "low": 110.57,
    "high": 110.63,
    "atar": 56.65
  },
  {
    "low": 110.64,
    "high": 110.68,
    "atar": 56.7
  },
  {
    "low": 110.69,
    "high": 110.74,
    "atar": 56.75
  },
  {
    "low": 110.75,
    "high": 110.81,
    "atar": 56.8
  },
  {
    "low": 110.82,
    "high": 110.86,
    "atar": 56.85
  },
  {
    "low": 110.87,
    "high": 110.93,
    "atar": 56.9
  },
  {
    "low": 110.94,
    "high": 110.97,
    "atar": 56.95
  },
  {
    "low": 110.98,
    "high": 111.05,
    "atar": 57
  },
  {
    "low": 111.06,
    "high": 111.09,
    "atar": 57.05
  },
  {
    "low": 111.1,
    "high": 111.15,
    "atar": 57.1
  },
  {
    "low": 111.16,
    "high": 111.2,
    "atar": 57.15
  },
  {
    "low": 111.21,
    "high": 111.27,
    "atar": 57.2
  },
  {
    "low": 111.28,
    "high": 111.35,
    "atar": 57.25
  },
  {
    "low": 111.36,
    "high": 111.41,
    "atar": 57.3
  },
  {
    "low": 111.42,
    "high": 111.46,
    "atar": 57.35
  },
  {
    "low": 111.47,
    "high": 111.51,
    "atar": 57.4
  },
  {
    "low": 111.52,
    "high": 111.57,
    "atar": 57.45
  },
  {
    "low": 111.58,
    "high": 111.62,
    "atar": 57.5
  },
  {
    "low": 111.63,
    "high": 111.71,
    "atar": 57.55
  },
  {
    "low": 111.72,
    "high": 111.75,
    "atar": 57.6
  },
  {
    "low": 111.76,
    "high": 111.81,
    "atar": 57.65
  },
  {
    "low": 111.82,
    "high": 111.86,
    "atar": 57.7
  },
  {
    "low": 111.87,
    "high": 111.92,
    "atar": 57.75
  },
  {
    "low": 111.93,
    "high": 111.98,
    "atar": 57.8
  },
  {
    "low": 111.99,
    "high": 112.02,
    "atar": 57.85
  },
  {
    "low": 112.03,
    "high": 112.09,
    "atar": 57.9
  },
  {
    "low": 112.1,
    "high": 112.15,
    "atar": 57.95
  },
  {
    "low": 112.16,
    "high": 112.2,
    "atar": 58
  },
  {
    "low": 112.21,
    "high": 112.27,
    "atar": 58.05
  },
  {
    "low": 112.28,
    "high": 112.33,
    "atar": 58.1
  },
  {
    "low": 112.34,
    "high": 112.39,
    "atar": 58.15
  },
  {
    "low": 112.4,
    "high": 112.46,
    "atar": 58.2
  },
  {
    "low": 112.47,
    "high": 112.51,
    "atar": 58.25
  },
  {
    "low": 112.52,
    "high": 112.55,
    "atar": 58.3
  },
  {
    "low": 112.56,
    "high": 112.61,
    "atar": 58.35
  },
  {
    "low": 112.62,
    "high": 112.65,
    "atar": 58.4
  },
  {
    "low": 112.66,
    "high": 112.72,
    "atar": 58.45
  },
  {
    "low": 112.73,
    "high": 112.79,
    "atar": 58.5
  },
  {
    "low": 112.8,
    "high": 112.85,
    "atar": 58.55
  },
  {
    "low": 112.86,
    "high": 112.93,
    "atar": 58.6
  },
  {
    "low": 112.94,
    "high": 112.97,
    "atar": 58.65
  },
  {
    "low": 112.98,
    "high": 113.02,
    "atar": 58.7
  },
  {
    "low": 113.03,
    "high": 113.08,
    "atar": 58.75
  },
  {
    "low": 113.09,
    "high": 113.14,
    "atar": 58.8
  },
  {
    "low": 113.15,
    "high": 113.19,
    "atar": 58.85
  },
  {
    "low": 113.2,
    "high": 113.27,
    "atar": 58.9
  },
  {
    "low": 113.28,
    "high": 113.34,
    "atar": 58.95
  },
  {
    "low": 113.35,
    "high": 113.38,
    "atar": 59
  },
  {
    "low": 113.39,
    "high": 113.45,
    "atar": 59.05
  },
  {
    "low": 113.46,
    "high": 113.49,
    "atar": 59.1
  },
  {
    "low": 113.5,
    "high": 113.53,
    "atar": 59.15
  },
  {
    "low": 113.54,
    "high": 113.59,
    "atar": 59.2
  },
  {
    "low": 113.6,
    "high": 113.64,
    "atar": 59.25
  },
  {
    "low": 113.65,
    "high": 113.7,
    "atar": 59.3
  },
  {
    "low": 113.71,
    "high": 113.75,
    "atar": 59.35
  },
  {
    "low": 113.76,
    "high": 113.81,
    "atar": 59.4
  },
  {
    "low": 113.82,
    "high": 113.86,
    "atar": 59.45
  },
  {
    "low": 113.87,
    "high": 113.91,
    "atar": 59.5
  },
  {
    "low": 113.92,
    "high": 113.96,
    "atar": 59.55
  },
  {
    "low": 113.97,
    "high": 114.02,
    "atar": 59.6
  },
  {
    "low": 114.03,
    "high": 114.08,
    "atar": 59.65
  },
  {
    "low": 114.09,
    "high": 114.13,
    "atar": 59.7
  },
  {
    "low": 114.14,
    "high": 114.19,
    "atar": 59.75
  },
  {
    "low": 114.2,
    "high": 114.25,
    "atar": 59.8
  },
  {
    "low": 114.26,
    "high": 114.31,
    "atar": 59.85
  },
  {
    "low": 114.32,
    "high": 114.38,
    "atar": 59.9
  },
  {
    "low": 114.39,
    "high": 114.44,
    "atar": 59.95
  },
  {
    "low": 114.45,
    "high": 114.5,
    "atar": 60
  },
  {
    "low": 114.51,
    "high": 114.56,
    "atar": 60.05
  },
  {
    "low": 114.57,
    "high": 114.63,
    "atar": 60.1
  },
  {
    "low": 114.64,
    "high": 114.67,
    "atar": 60.15
  },
  {
    "low": 114.68,
    "high": 114.72,
    "atar": 60.2
  },
  {
    "low": 114.73,
    "high": 114.78,
    "atar": 60.25
  },
  {
    "low": 114.79,
    "high": 114.84,
    "atar": 60.3
  },
  {
    "low": 114.85,
    "high": 114.89,
    "atar": 60.35
  },
  {
    "low": 114.9,
    "high": 114.95,
    "atar": 60.4
  },
  {
    "low": 114.96,
    "high": 115.01,
    "atar": 60.45
  },
  {
    "low": 115.02,
    "high": 115.05,
    "atar": 60.5
  },
  {
    "low": 115.06,
    "high": 115.12,
    "atar": 60.55
  },
  {
    "low": 115.13,
    "high": 115.19,
    "atar": 60.6
  },
  {
    "low": 115.2,
    "high": 115.25,
    "atar": 60.65
  },
  {
    "low": 115.26,
    "high": 115.31,
    "atar": 60.7
  },
  {
    "low": 115.32,
    "high": 115.36,
    "atar": 60.75
  },
  {
    "low": 115.37,
    "high": 115.43,
    "atar": 60.8
  },
  {
    "low": 115.44,
    "high": 115.49,
    "atar": 60.85
  },
  {
    "low": 115.5,
    "high": 115.56,
    "atar": 60.9
  },
  {
    "low": 115.57,
    "high": 115.62,
    "atar": 60.95
  },
  {
    "low": 115.63,
    "high": 115.69,
    "atar": 61
  },
  {
    "low": 115.7,
    "high": 115.74,
    "atar": 61.05
  },
  {
    "low": 115.75,
    "high": 115.8,
    "atar": 61.1
  },
  {
    "low": 115.81,
    "high": 115.86,
    "atar": 61.15
  },
  {
    "low": 115.87,
    "high": 115.91,
    "atar": 61.2
  },
  {
    "low": 115.92,
    "high": 115.95,
    "atar": 61.25
  },
  {
    "low": 115.96,
    "high": 116,
    "atar": 61.3
  },
  {
    "low": 116.01,
    "high": 116.06,
    "atar": 61.35
  },
  {
    "low": 116.07,
    "high": 116.14,
    "atar": 61.4
  },
  {
    "low": 116.15,
    "high": 116.18,
    "atar": 61.45
  },
  {
    "low": 116.19,
    "high": 116.25,
    "atar": 61.5
  },
  {
    "low": 116.26,
    "high": 116.31,
    "atar": 61.55
  },
  {
    "low": 116.32,
    "high": 116.37,
    "atar": 61.6
  },
  {
    "low": 116.38,
    "high": 116.43,
    "atar": 61.65
  },
  {
    "low": 116.44,
    "high": 116.48,
    "atar": 61.7
  },
  {
    "low": 116.49,
    "high": 116.53,
    "atar": 61.75
  },
  {
    "low": 116.54,
    "high": 116.59,
    "atar": 61.8
  },
  {
    "low": 116.6,
    "high": 116.65,
    "atar": 61.85
  },
  {
    "low": 116.66,
    "high": 116.71,
    "atar": 61.9
  },
  {
    "low": 116.72,
    "high": 116.78,
    "atar": 61.95
  },
  {
    "low": 116.79,
    "high": 116.83,
    "atar": 62
  },
  {
    "low": 116.84,
    "high": 116.9,
    "atar": 62.05
  },
  {
    "low": 116.91,
    "high": 116.95,
    "atar": 62.1
  },
  {
    "low": 116.96,
    "high": 117.01,
    "atar": 62.15
  },
  {
    "low": 117.02,
    "high": 117.07,
    "atar": 62.2
  },
  {
    "low": 117.08,
    "high": 117.12,
    "atar": 62.25
  },
  {
    "low": 117.13,
    "high": 117.17,
    "atar": 62.3
  },
  {
    "low": 117.18,
    "high": 117.25,
    "atar": 62.35
  },
  {
    "low": 117.26,
    "high": 117.32,
    "atar": 62.4
  },
  {
    "low": 117.33,
    "high": 117.38,
    "atar": 62.45
  },
  {
    "low": 117.39,
    "high": 117.43,
    "atar": 62.5
  },
  {
    "low": 117.44,
    "high": 117.51,
    "atar": 62.55
  },
  {
    "low": 117.52,
    "high": 117.56,
    "atar": 62.6
  },
  {
    "low": 117.57,
    "high": 117.64,
    "atar": 62.65
  },
  {
    "low": 117.65,
    "high": 117.7,
    "atar": 62.7
  },
  {
    "low": 117.71,
    "high": 117.75,
    "atar": 62.75
  },
  {
    "low": 117.76,
    "high": 117.83,
    "atar": 62.8
  },
  {
    "low": 117.84,
    "high": 117.89,
    "atar": 62.85
  },
  {
    "low": 117.9,
    "high": 117.95,
    "atar": 62.9
  },
  {
    "low": 117.96,
    "high": 118.01,
    "atar": 62.95
  },
  {
    "low": 118.02,
    "high": 118.05,
    "atar": 63
  },
  {
    "low": 118.06,
    "high": 118.13,
    "atar": 63.05
  },
  {
    "low": 118.14,
    "high": 118.18,
    "atar": 63.1
  },
  {
    "low": 118.19,
    "high": 118.24,
    "atar": 63.15
  },
  {
    "low": 118.25,
    "high": 118.3,
    "atar": 63.2
  },
  {
    "low": 118.31,
    "high": 118.34,
    "atar": 63.25
  },
  {
    "low": 118.35,
    "high": 118.41,
    "atar": 63.3
  },
  {
    "low": 118.42,
    "high": 118.46,
    "atar": 63.35
  },
  {
    "low": 118.47,
    "high": 118.5,
    "atar": 63.4
  },
  {
    "low": 118.51,
    "high": 118.56,
    "atar": 63.45
  },
  {
    "low": 118.57,
    "high": 118.64,
    "atar": 63.5
  },
  {
    "low": 118.65,
    "high": 118.69,
    "atar": 63.55
  },
  {
    "low": 118.7,
    "high": 118.77,
    "atar": 63.6
  },
  {
    "low": 118.78,
    "high": 118.82,
    "atar": 63.65
  },
  {
    "low": 118.83,
    "high": 118.89,
    "atar": 63.7
  },
  {
    "low": 118.9,
    "high": 118.93,
    "atar": 63.75
  },
  {
    "low": 118.94,
    "high": 118.98,
    "atar": 63.8
  },
  {
    "low": 118.99,
    "high": 119.05,
    "atar": 63.85
  },
  {
    "low": 119.06,
    "high": 119.13,
    "atar": 63.9
  },
  {
    "low": 119.14,
    "high": 119.19,
    "atar": 63.95
  },
  {
    "low": 119.2,
    "high": 119.25,
    "atar": 64
  },
  {
    "low": 119.26,
    "high": 119.31,
    "atar": 64.05
  },
  {
    "low": 119.32,
    "high": 119.36,
    "atar": 64.1
  },
  {
    "low": 119.37,
    "high": 119.42,
    "atar": 64.15
  },
  {
    "low": 119.43,
    "high": 119.47,
    "atar": 64.2
  },
  {
    "low": 119.48,
    "high": 119.55,
    "atar": 64.25
  },
  {
    "low": 119.56,
    "high": 119.62,
    "atar": 64.3
  },
  {
    "low": 119.63,
    "high": 119.67,
    "atar": 64.35
  },
  {
    "low": 119.68,
    "high": 119.72,
    "atar": 64.4
  },
  {
    "low": 119.73,
    "high": 119.76,
    "atar": 64.45
  },
  {
    "low": 119.77,
    "high": 119.82,
    "atar": 64.5
  },
  {
    "low": 119.83,
    "high": 119.87,
    "atar": 64.55
  },
  {
    "low": 119.88,
    "high": 119.92,
    "atar": 64.6
  },
  {
    "low": 119.93,
    "high": 119.98,
    "atar": 64.65
  },
  {
    "low": 119.99,
    "high": 120.03,
    "atar": 64.7
  },
  {
    "low": 120.04,
    "high": 120.09,
    "atar": 64.75
  },
  {
    "low": 120.1,
    "high": 120.14,
    "atar": 64.8
  },
  {
    "low": 120.15,
    "high": 120.2,
    "atar": 64.85
  },
  {
    "low": 120.21,
    "high": 120.26,
    "atar": 64.9
  },
  {
    "low": 120.27,
    "high": 120.32,
    "atar": 64.95
  },
  {
    "low": 120.33,
    "high": 120.37,
    "atar": 65
  },
  {
    "low": 120.38,
    "high": 120.44,
    "atar": 65.05
  },
  {
    "low": 120.45,
    "high": 120.51,
    "atar": 65.1
  },
  {
    "low": 120.52,
    "high": 120.57,
    "atar": 65.15
  },
  {
    "low": 120.58,
    "high": 120.65,
    "atar": 65.2
  },
  {
    "low": 120.66,
    "high": 120.71,
    "atar": 65.25
  },
  {
    "low": 120.72,
    "high": 120.77,
    "atar": 65.3
  },
  {
    "low": 120.78,
    "high": 120.85,
    "atar": 65.35
  },
  {
    "low": 120.86,
    "high": 120.9,
    "atar": 65.4
  },
  {
    "low": 120.91,
    "high": 121,
    "atar": 65.45
  },
  {
    "low": 121.01,
    "high": 121.06,
    "atar": 65.5
  },
  {
    "low": 121.07,
    "high": 121.13,
    "atar": 65.55
  },
  {
    "low": 121.14,
    "high": 121.19,
    "atar": 65.6
  },
  {
    "low": 121.2,
    "high": 121.26,
    "atar": 65.65
  },
  {
    "low": 121.27,
    "high": 121.33,
    "atar": 65.7
  },
  {
    "low": 121.34,
    "high": 121.39,
    "atar": 65.75
  },
  {
    "low": 121.4,
    "high": 121.47,
    "atar": 65.8
  },
  {
    "low": 121.48,
    "high": 121.53,
    "atar": 65.85
  },
  {
    "low": 121.54,
    "high": 121.59,
    "atar": 65.9
  },
  {
    "low": 121.6,
    "high": 121.64,
    "atar": 65.95
  },
  {
    "low": 121.65,
    "high": 121.69,
    "atar": 66
  },
  {
    "low": 121.7,
    "high": 121.75,
    "atar": 66.05
  },
  {
    "low": 121.76,
    "high": 121.82,
    "atar": 66.1
  },
  {
    "low": 121.83,
    "high": 121.9,
    "atar": 66.15
  },
  {
    "low": 121.91,
    "high": 121.94,
    "atar": 66.2
  },
  {
    "low": 121.95,
    "high": 122,
    "atar": 66.25
  },
  {
    "low": 122.01,
    "high": 122.07,
    "atar": 66.3
  },
  {
    "low": 122.08,
    "high": 122.12,
    "atar": 66.35
  },
  {
    "low": 122.13,
    "high": 122.19,
    "atar": 66.4
  },
  {
    "low": 122.2,
    "high": 122.26,
    "atar": 66.45
  },
  {
    "low": 122.27,
    "high": 122.32,
    "atar": 66.5
  },
  {
    "low": 122.33,
    "high": 122.38,
    "atar": 66.55
  },
  {
    "low": 122.39,
    "high": 122.43,
    "atar": 66.6
  },
  {
    "low": 122.44,
    "high": 122.5,
    "atar": 66.65
  },
  {
    "low": 122.51,
    "high": 122.56,
    "atar": 66.7
  },
  {
    "low": 122.57,
    "high": 122.64,
    "atar": 66.75
  },
  {
    "low": 122.65,
    "high": 122.71,
    "atar": 66.8
  },
  {
    "low": 122.72,
    "high": 122.77,
    "atar": 66.85
  },
  {
    "low": 122.78,
    "high": 122.84,
    "atar": 66.9
  },
  {
    "low": 122.85,
    "high": 122.91,
    "atar": 66.95
  },
  {
    "low": 122.92,
    "high": 122.97,
    "atar": 67
  },
  {
    "low": 122.98,
    "high": 123.02,
    "atar": 67.05
  },
  {
    "low": 123.03,
    "high": 123.07,
    "atar": 67.1
  },
  {
    "low": 123.08,
    "high": 123.12,
    "atar": 67.15
  },
  {
    "low": 123.13,
    "high": 123.19,
    "atar": 67.2
  },
  {
    "low": 123.2,
    "high": 123.25,
    "atar": 67.25
  },
  {
    "low": 123.26,
    "high": 123.32,
    "atar": 67.3
  },
  {
    "low": 123.33,
    "high": 123.38,
    "atar": 67.35
  },
  {
    "low": 123.39,
    "high": 123.46,
    "atar": 67.4
  },
  {
    "low": 123.47,
    "high": 123.52,
    "atar": 67.45
  },
  {
    "low": 123.53,
    "high": 123.59,
    "atar": 67.5
  },
  {
    "low": 123.6,
    "high": 123.65,
    "atar": 67.55
  },
  {
    "low": 123.66,
    "high": 123.73,
    "atar": 67.6
  },
  {
    "low": 123.74,
    "high": 123.79,
    "atar": 67.65
  },
  {
    "low": 123.8,
    "high": 123.86,
    "atar": 67.7
  },
  {
    "low": 123.87,
    "high": 123.95,
    "atar": 67.75
  },
  {
    "low": 123.96,
    "high": 124,
    "atar": 67.8
  },
  {
    "low": 124.01,
    "high": 124.07,
    "atar": 67.85
  },
  {
    "low": 124.08,
    "high": 124.12,
    "atar": 67.9
  },
  {
    "low": 124.13,
    "high": 124.2,
    "atar": 67.95
  },
  {
    "low": 124.21,
    "high": 124.27,
    "atar": 68
  },
  {
    "low": 124.28,
    "high": 124.33,
    "atar": 68.05
  },
  {
    "low": 124.34,
    "high": 124.41,
    "atar": 68.1
  },
  {
    "low": 124.42,
    "high": 124.46,
    "atar": 68.15
  },
  {
    "low": 124.47,
    "high": 124.53,
    "atar": 68.2
  },
  {
    "low": 124.54,
    "high": 124.57,
    "atar": 68.25
  },
  {
    "low": 124.58,
    "high": 124.65,
    "atar": 68.3
  },
  {
    "low": 124.66,
    "high": 124.71,
    "atar": 68.35
  },
  {
    "low": 124.72,
    "high": 124.79,
    "atar": 68.4
  },
  {
    "low": 124.8,
    "high": 124.85,
    "atar": 68.45
  },
  {
    "low": 124.86,
    "high": 124.92,
    "atar": 68.5
  },
  {
    "low": 124.93,
    "high": 124.99,
    "atar": 68.55
  },
  {
    "low": 125,
    "high": 125.09,
    "atar": 68.6
  },
  {
    "low": 125.1,
    "high": 125.18,
    "atar": 68.65
  },
  {
    "low": 125.19,
    "high": 125.25,
    "atar": 68.7
  },
  {
    "low": 125.26,
    "high": 125.29,
    "atar": 68.75
  },
  {
    "low": 125.3,
    "high": 125.34,
    "atar": 68.8
  },
  {
    "low": 125.35,
    "high": 125.39,
    "atar": 68.85
  },
  {
    "low": 125.4,
    "high": 125.45,
    "atar": 68.9
  },
  {
    "low": 125.46,
    "high": 125.52,
    "atar": 68.95
  },
  {
    "low": 125.53,
    "high": 125.58,
    "atar": 69
  },
  {
    "low": 125.59,
    "high": 125.64,
    "atar": 69.05
  },
  {
    "low": 125.65,
    "high": 125.71,
    "atar": 69.1
  },
  {
    "low": 125.72,
    "high": 125.76,
    "atar": 69.15
  },
  {
    "low": 125.77,
    "high": 125.84,
    "atar": 69.2
  },
  {
    "low": 125.85,
    "high": 125.91,
    "atar": 69.25
  },
  {
    "low": 125.92,
    "high": 125.96,
    "atar": 69.3
  },
  {
    "low": 125.97,
    "high": 126.04,
    "atar": 69.35
  },
  {
    "low": 126.05,
    "high": 126.1,
    "atar": 69.4
  },
  {
    "low": 126.11,
    "high": 126.15,
    "atar": 69.45
  },
  {
    "low": 126.16,
    "high": 126.23,
    "atar": 69.5
  },
  {
    "low": 126.24,
    "high": 126.29,
    "atar": 69.55
  },
  {
    "low": 126.3,
    "high": 126.36,
    "atar": 69.6
  },
  {
    "low": 126.37,
    "high": 126.42,
    "atar": 69.65
  },
  {
    "low": 126.43,
    "high": 126.49,
    "atar": 69.7
  },
  {
    "low": 126.5,
    "high": 126.55,
    "atar": 69.75
  },
  {
    "low": 126.56,
    "high": 126.61,
    "atar": 69.8
  },
  {
    "low": 126.62,
    "high": 126.69,
    "atar": 69.85
  },
  {
    "low": 126.7,
    "high": 126.76,
    "atar": 69.9
  },
  {
    "low": 126.77,
    "high": 126.81,
    "atar": 69.95
  },
  {
    "low": 126.82,
    "high": 126.86,
    "atar": 70
  },
  {
    "low": 126.87,
    "high": 126.93,
    "atar": 70.05
  },
  {
    "low": 126.94,
    "high": 126.99,
    "atar": 70.1
  },
  {
    "low": 127,
    "high": 127.04,
    "atar": 70.15
  },
  {
    "low": 127.05,
    "high": 127.1,
    "atar": 70.2
  },
  {
    "low": 127.11,
    "high": 127.16,
    "atar": 70.25
  },
  {
    "low": 127.17,
    "high": 127.21,
    "atar": 70.3
  },
  {
    "low": 127.22,
    "high": 127.27,
    "atar": 70.35
  },
  {
    "low": 127.28,
    "high": 127.34,
    "atar": 70.4
  },
  {
    "low": 127.35,
    "high": 127.41,
    "atar": 70.45
  },
  {
    "low": 127.42,
    "high": 127.48,
    "atar": 70.5
  },
  {
    "low": 127.49,
    "high": 127.53,
    "atar": 70.55
  },
  {
    "low": 127.54,
    "high": 127.6,
    "atar": 70.6
  },
  {
    "low": 127.61,
    "high": 127.67,
    "atar": 70.65
  },
  {
    "low": 127.68,
    "high": 127.73,
    "atar": 70.7
  },
  {
    "low": 127.74,
    "high": 127.81,
    "atar": 70.75
  },
  {
    "low": 127.82,
    "high": 127.88,
    "atar": 70.8
  },
  {
    "low": 127.89,
    "high": 127.95,
    "atar": 70.85
  },
  {
    "low": 127.96,
    "high": 128,
    "atar": 70.9
  },
  {
    "low": 128.01,
    "high": 128.08,
    "atar": 70.95
  },
  {
    "low": 128.09,
    "high": 128.14,
    "atar": 71
  },
  {
    "low": 128.15,
    "high": 128.2,
    "atar": 71.05
  },
  {
    "low": 128.21,
    "high": 128.25,
    "atar": 71.1
  },
  {
    "low": 128.26,
    "high": 128.31,
    "atar": 71.15
  },
  {
    "low": 128.32,
    "high": 128.39,
    "atar": 71.2
  },
  {
    "low": 128.4,
    "high": 128.44,
    "atar": 71.25
  },
  {
    "low": 128.45,
    "high": 128.5,
    "atar": 71.3
  },
  {
    "low": 128.51,
    "high": 128.57,
    "atar": 71.35
  },
  {
    "low": 128.58,
    "high": 128.62,
    "atar": 71.4
  },
  {
    "low": 128.63,
    "high": 128.69,
    "atar": 71.45
  },
  {
    "low": 128.7,
    "high": 128.74,
    "atar": 71.5
  },
  {
    "low": 128.75,
    "high": 128.8,
    "atar": 71.55
  },
  {
    "low": 128.81,
    "high": 128.86,
    "atar": 71.6
  },
  {
    "low": 128.87,
    "high": 128.92,
    "atar": 71.65
  },
  {
    "low": 128.93,
    "high": 129.01,
    "atar": 71.7
  },
  {
    "low": 129.02,
    "high": 129.07,
    "atar": 71.75
  },
  {
    "low": 129.08,
    "high": 129.15,
    "atar": 71.8
  },
  {
    "low": 129.16,
    "high": 129.23,
    "atar": 71.85
  },
  {
    "low": 129.24,
    "high": 129.29,
    "atar": 71.9
  },
  {
    "low": 129.3,
    "high": 129.37,
    "atar": 71.95
  },
  {
    "low": 129.38,
    "high": 129.43,
    "atar": 72
  },
  {
    "low": 129.44,
    "high": 129.49,
    "atar": 72.05
  },
  {
    "low": 129.5,
    "high": 129.55,
    "atar": 72.1
  },
  {
    "low": 129.56,
    "high": 129.61,
    "atar": 72.15
  },
  {
    "low": 129.62,
    "high": 129.7,
    "atar": 72.2
  },
  {
    "low": 129.71,
    "high": 129.77,
    "atar": 72.25
  },
  {
    "low": 129.78,
    "high": 129.83,
    "atar": 72.3
  },
  {
    "low": 129.84,
    "high": 129.89,
    "atar": 72.35
  },
  {
    "low": 129.9,
    "high": 129.96,
    "atar": 72.4
  },
  {
    "low": 129.97,
    "high": 130.01,
    "atar": 72.45
  },
  {
    "low": 130.02,
    "high": 130.07,
    "atar": 72.5
  },
  {
    "low": 130.08,
    "high": 130.14,
    "atar": 72.55
  },
  {
    "low": 130.15,
    "high": 130.21,
    "atar": 72.6
  },
  {
    "low": 130.22,
    "high": 130.3,
    "atar": 72.65
  },
  {
    "low": 130.31,
    "high": 130.36,
    "atar": 72.7
  },
  {
    "low": 130.37,
    "high": 130.44,
    "atar": 72.75
  },
  {
    "low": 130.45,
    "high": 130.5,
    "atar": 72.8
  },
  {
    "low": 130.51,
    "high": 130.55,
    "atar": 72.85
  },
  {
    "low": 130.56,
    "high": 130.63,
    "atar": 72.9
  },
  {
    "low": 130.64,
    "high": 130.7,
    "atar": 72.95
  },
  {
    "low": 130.71,
    "high": 130.76,
    "atar": 73
  },
  {
    "low": 130.77,
    "high": 130.84,
    "atar": 73.05
  },
  {
    "low": 130.85,
    "high": 130.92,
    "atar": 73.1
  },
  {
    "low": 130.93,
    "high": 130.97,
    "atar": 73.15
  },
  {
    "low": 130.98,
    "high": 131.05,
    "atar": 73.2
  },
  {
    "low": 131.06,
    "high": 131.11,
    "atar": 73.25
  },
  {
    "low": 131.12,
    "high": 131.18,
    "atar": 73.3
  },
  {
    "low": 131.19,
    "high": 131.28,
    "atar": 73.35
  },
  {
    "low": 131.29,
    "high": 131.33,
    "atar": 73.4
  },
  {
    "low": 131.34,
    "high": 131.4,
    "atar": 73.45
  },
  {
    "low": 131.41,
    "high": 131.45,
    "atar": 73.5
  },
  {
    "low": 131.46,
    "high": 131.5,
    "atar": 73.55
  },
  {
    "low": 131.51,
    "high": 131.57,
    "atar": 73.6
  },
  {
    "low": 131.58,
    "high": 131.66,
    "atar": 73.65
  },
  {
    "low": 131.67,
    "high": 131.73,
    "atar": 73.7
  },
  {
    "low": 131.74,
    "high": 131.79,
    "atar": 73.75
  },
  {
    "low": 131.8,
    "high": 131.85,
    "atar": 73.8
  },
  {
    "low": 131.86,
    "high": 131.94,
    "atar": 73.85
  },
  {
    "low": 131.95,
    "high": 131.99,
    "atar": 73.9
  },
  {
    "low": 132,
    "high": 132.04,
    "atar": 73.95
  },
  {
    "low": 132.05,
    "high": 132.11,
    "atar": 74
  },
  {
    "low": 132.12,
    "high": 132.18,
    "atar": 74.05
  },
  {
    "low": 132.19,
    "high": 132.25,
    "atar": 74.1
  },
  {
    "low": 132.26,
    "high": 132.35,
    "atar": 74.15
  },
  {
    "low": 132.36,
    "high": 132.42,
    "atar": 74.2
  },
  {
    "low": 132.43,
    "high": 132.51,
    "atar": 74.25
  },
  {
    "low": 132.52,
    "high": 132.59,
    "atar": 74.3
  },
  {
    "low": 132.6,
    "high": 132.65,
    "atar": 74.35
  },
  {
    "low": 132.66,
    "high": 132.73,
    "atar": 74.4
  },
  {
    "low": 132.74,
    "high": 132.79,
    "atar": 74.45
  },
  {
    "low": 132.8,
    "high": 132.86,
    "atar": 74.5
  },
  {
    "low": 132.87,
    "high": 132.93,
    "atar": 74.55
  },
  {
    "low": 132.94,
    "high": 133.01,
    "atar": 74.6
  },
  {
    "low": 133.02,
    "high": 133.08,
    "atar": 74.65
  },
  {
    "low": 133.09,
    "high": 133.16,
    "atar": 74.7
  },
  {
    "low": 133.17,
    "high": 133.22,
    "atar": 74.75
  },
  {
    "low": 133.23,
    "high": 133.3,
    "atar": 74.8
  },
  {
    "low": 133.31,
    "high": 133.37,
    "atar": 74.85
  },
  {
    "low": 133.38,
    "high": 133.44,
    "atar": 74.9
  },
  {
    "low": 133.45,
    "high": 133.49,
    "atar": 74.95
  },
  {
    "low": 133.5,
    "high": 133.59,
    "atar": 75
  },
  {
    "low": 133.6,
    "high": 133.66,
    "atar": 75.05
  },
  {
    "low": 133.67,
    "high": 133.74,
    "atar": 75.1
  },
  {
    "low": 133.75,
    "high": 133.79,
    "atar": 75.15
  },
  {
    "low": 133.8,
    "high": 133.88,
    "atar": 75.2
  },
  {
    "low": 133.89,
    "high": 133.95,
    "atar": 75.25
  },
  {
    "low": 133.96,
    "high": 134.03,
    "atar": 75.3
  },
  {
    "low": 134.04,
    "high": 134.09,
    "atar": 75.35
  },
  {
    "low": 134.1,
    "high": 134.14,
    "atar": 75.4
  },
  {
    "low": 134.15,
    "high": 134.21,
    "atar": 75.45
  },
  {
    "low": 134.22,
    "high": 134.28,
    "atar": 75.5
  },
  {
    "low": 134.29,
    "high": 134.36,
    "atar": 75.55
  },
  {
    "low": 134.37,
    "high": 134.43,
    "atar": 75.6
  },
  {
    "low": 134.44,
    "high": 134.49,
    "atar": 75.65
  },
  {
    "low": 134.5,
    "high": 134.55,
    "atar": 75.7
  },
  {
    "low": 134.56,
    "high": 134.63,
    "atar": 75.75
  },
  {
    "low": 134.64,
    "high": 134.68,
    "atar": 75.8
  },
  {
    "low": 134.69,
    "high": 134.75,
    "atar": 75.85
  },
  {
    "low": 134.76,
    "high": 134.81,
    "atar": 75.9
  },
  {
    "low": 134.82,
    "high": 134.88,
    "atar": 75.95
  },
  {
    "low": 134.89,
    "high": 134.96,
    "atar": 76
  },
  {
    "low": 134.97,
    "high": 135.04,
    "atar": 76.05
  },
  {
    "low": 135.05,
    "high": 135.1,
    "atar": 76.1
  },
  {
    "low": 135.11,
    "high": 135.16,
    "atar": 76.15
  },
  {
    "low": 135.17,
    "high": 135.23,
    "atar": 76.2
  },
  {
    "low": 135.24,
    "high": 135.3,
    "atar": 76.25
  },
  {
    "low": 135.31,
    "high": 135.4,
    "atar": 76.3
  },
  {
    "low": 135.41,
    "high": 135.48,
    "atar": 76.35
  },
  {
    "low": 135.49,
    "high": 135.58,
    "atar": 76.4
  },
  {
    "low": 135.59,
    "high": 135.66,
    "atar": 76.45
  },
  {
    "low": 135.67,
    "high": 135.73,
    "atar": 76.5
  },
  {
    "low": 135.74,
    "high": 135.81,
    "atar": 76.55
  },
  {
    "low": 135.82,
    "high": 135.87,
    "atar": 76.6
  },
  {
    "low": 135.88,
    "high": 135.94,
    "atar": 76.65
  },
  {
    "low": 135.95,
    "high": 136.01,
    "atar": 76.7
  },
  {
    "low": 136.02,
    "high": 136.08,
    "atar": 76.75
  },
  {
    "low": 136.09,
    "high": 136.16,
    "atar": 76.8
  },
  {
    "low": 136.17,
    "high": 136.23,
    "atar": 76.85
  },
  {
    "low": 136.24,
    "high": 136.31,
    "atar": 76.9
  },
  {
    "low": 136.32,
    "high": 136.38,
    "atar": 76.95
  },
  {
    "low": 136.39,
    "high": 136.44,
    "atar": 77
  },
  {
    "low": 136.45,
    "high": 136.51,
    "atar": 77.05
  },
  {
    "low": 136.52,
    "high": 136.57,
    "atar": 77.1
  },
  {
    "low": 136.58,
    "high": 136.64,
    "atar": 77.15
  },
  {
    "low": 136.65,
    "high": 136.71,
    "atar": 77.2
  },
  {
    "low": 136.72,
    "high": 136.77,
    "atar": 77.25
  },
  {
    "low": 136.78,
    "high": 136.85,
    "atar": 77.3
  },
  {
    "low": 136.86,
    "high": 136.94,
    "atar": 77.35
  },
  {
    "low": 136.95,
    "high": 137.02,
    "atar": 77.4
  },
  {
    "low": 137.03,
    "high": 137.1,
    "atar": 77.45
  },
  {
    "low": 137.11,
    "high": 137.18,
    "atar": 77.5
  },
  {
    "low": 137.19,
    "high": 137.26,
    "atar": 77.55
  },
  {
    "low": 137.27,
    "high": 137.32,
    "atar": 77.6
  },
  {
    "low": 137.33,
    "high": 137.37,
    "atar": 77.65
  },
  {
    "low": 137.38,
    "high": 137.45,
    "atar": 77.7
  },
  {
    "low": 137.46,
    "high": 137.5,
    "atar": 77.75
  },
  {
    "low": 137.51,
    "high": 137.56,
    "atar": 77.8
  },
  {
    "low": 137.57,
    "high": 137.64,
    "atar": 77.85
  },
  {
    "low": 137.65,
    "high": 137.73,
    "atar": 77.9
  },
  {
    "low": 137.74,
    "high": 137.8,
    "atar": 77.95
  },
  {
    "low": 137.81,
    "high": 137.85,
    "atar": 78
  },
  {
    "low": 137.86,
    "high": 137.92,
    "atar": 78.05
  },
  {
    "low": 137.93,
    "high": 137.98,
    "atar": 78.1
  },
  {
    "low": 137.99,
    "high": 138.07,
    "atar": 78.15
  },
  {
    "low": 138.08,
    "high": 138.18,
    "atar": 78.2
  },
  {
    "low": 138.19,
    "high": 138.27,
    "atar": 78.25
  },
  {
    "low": 138.28,
    "high": 138.37,
    "atar": 78.3
  },
  {
    "low": 138.38,
    "high": 138.45,
    "atar": 78.35
  },
  {
    "low": 138.46,
    "high": 138.52,
    "atar": 78.4
  },
  {
    "low": 138.53,
    "high": 138.6,
    "atar": 78.45
  },
  {
    "low": 138.61,
    "high": 138.7,
    "atar": 78.5
  },
  {
    "low": 138.71,
    "high": 138.78,
    "atar": 78.55
  },
  {
    "low": 138.79,
    "high": 138.87,
    "atar": 78.6
  },
  {
    "low": 138.88,
    "high": 138.94,
    "atar": 78.65
  },
  {
    "low": 138.95,
    "high": 138.99,
    "atar": 78.7
  },
  {
    "low": 139,
    "high": 139.05,
    "atar": 78.75
  },
  {
    "low": 139.06,
    "high": 139.14,
    "atar": 78.8
  },
  {
    "low": 139.15,
    "high": 139.21,
    "atar": 78.85
  },
  {
    "low": 139.22,
    "high": 139.28,
    "atar": 78.9
  },
  {
    "low": 139.29,
    "high": 139.35,
    "atar": 78.95
  },
  {
    "low": 139.36,
    "high": 139.42,
    "atar": 79
  },
  {
    "low": 139.43,
    "high": 139.49,
    "atar": 79.05
  },
  {
    "low": 139.5,
    "high": 139.57,
    "atar": 79.1
  },
  {
    "low": 139.58,
    "high": 139.65,
    "atar": 79.15
  },
  {
    "low": 139.66,
    "high": 139.72,
    "atar": 79.2
  },
  {
    "low": 139.73,
    "high": 139.82,
    "atar": 79.25
  },
  {
    "low": 139.83,
    "high": 139.89,
    "atar": 79.3
  },
  {
    "low": 139.9,
    "high": 139.97,
    "atar": 79.35
  },
  {
    "low": 139.98,
    "high": 140.05,
    "atar": 79.4
  },
  {
    "low": 140.06,
    "high": 140.13,
    "atar": 79.45
  },
  {
    "low": 140.14,
    "high": 140.2,
    "atar": 79.5
  },
  {
    "low": 140.21,
    "high": 140.26,
    "atar": 79.55
  },
  {
    "low": 140.27,
    "high": 140.35,
    "atar": 79.6
  },
  {
    "low": 140.36,
    "high": 140.4,
    "atar": 79.65
  },
  {
    "low": 140.41,
    "high": 140.5,
    "atar": 79.7
  },
  {
    "low": 140.51,
    "high": 140.57,
    "atar": 79.75
  },
  {
    "low": 140.58,
    "high": 140.67,
    "atar": 79.8
  },
  {
    "low": 140.68,
    "high": 140.76,
    "atar": 79.85
  },
  {
    "low": 140.77,
    "high": 140.83,
    "atar": 79.9
  },
  {
    "low": 140.84,
    "high": 140.91,
    "atar": 79.95
  },
  {
    "low": 140.92,
    "high": 140.99,
    "atar": 80
  },
  {
    "low": 141,
    "high": 141.08,
    "atar": 80.05
  },
  {
    "low": 141.09,
    "high": 141.16,
    "atar": 80.1
  },
  {
    "low": 141.17,
    "high": 141.24,
    "atar": 80.15
  },
  {
    "low": 141.25,
    "high": 141.3,
    "atar": 80.2
  },
  {
    "low": 141.31,
    "high": 141.38,
    "atar": 80.25
  },
  {
    "low": 141.39,
    "high": 141.45,
    "atar": 80.3
  },
  {
    "low": 141.46,
    "high": 141.52,
    "atar": 80.35
  },
  {
    "low": 141.53,
    "high": 141.6,
    "atar": 80.4
  },
  {
    "low": 141.61,
    "high": 141.68,
    "atar": 80.45
  },
  {
    "low": 141.69,
    "high": 141.77,
    "atar": 80.5
  },
  {
    "low": 141.78,
    "high": 141.84,
    "atar": 80.55
  },
  {
    "low": 141.85,
    "high": 141.9,
    "atar": 80.6
  },
  {
    "low": 141.91,
    "high": 141.96,
    "atar": 80.65
  },
  {
    "low": 141.97,
    "high": 142.07,
    "atar": 80.7
  },
  {
    "low": 142.08,
    "high": 142.15,
    "atar": 80.75
  },
  {
    "low": 142.16,
    "high": 142.23,
    "atar": 80.8
  },
  {
    "low": 142.24,
    "high": 142.33,
    "atar": 80.85
  },
  {
    "low": 142.34,
    "high": 142.43,
    "atar": 80.9
  },
  {
    "low": 142.44,
    "high": 142.51,
    "atar": 80.95
  },
  {
    "low": 142.52,
    "high": 142.57,
    "atar": 81
  },
  {
    "low": 142.58,
    "high": 142.64,
    "atar": 81.05
  },
  {
    "low": 142.65,
    "high": 142.71,
    "atar": 81.1
  },
  {
    "low": 142.72,
    "high": 142.79,
    "atar": 81.15
  },
  {
    "low": 142.8,
    "high": 142.89,
    "atar": 81.2
  },
  {
    "low": 142.9,
    "high": 142.96,
    "atar": 81.25
  },
  {
    "low": 142.97,
    "high": 143.06,
    "atar": 81.3
  },
  {
    "low": 143.07,
    "high": 143.11,
    "atar": 81.35
  },
  {
    "low": 143.12,
    "high": 143.18,
    "atar": 81.4
  },
  {
    "low": 143.19,
    "high": 143.27,
    "atar": 81.45
  },
  {
    "low": 143.28,
    "high": 143.35,
    "atar": 81.5
  },
  {
    "low": 143.36,
    "high": 143.42,
    "atar": 81.55
  },
  {
    "low": 143.43,
    "high": 143.5,
    "atar": 81.6
  },
  {
    "low": 143.51,
    "high": 143.56,
    "atar": 81.65
  },
  {
    "low": 143.57,
    "high": 143.63,
    "atar": 81.7
  },
  {
    "low": 143.64,
    "high": 143.7,
    "atar": 81.75
  },
  {
    "low": 143.71,
    "high": 143.78,
    "atar": 81.8
  },
  {
    "low": 143.79,
    "high": 143.87,
    "atar": 81.85
  },
  {
    "low": 143.88,
    "high": 143.94,
    "atar": 81.9
  },
  {
    "low": 143.95,
    "high": 144.02,
    "atar": 81.95
  },
  {
    "low": 144.03,
    "high": 144.11,
    "atar": 82
  },
  {
    "low": 144.12,
    "high": 144.19,
    "atar": 82.05
  },
  {
    "low": 144.2,
    "high": 144.27,
    "atar": 82.1
  },
  {
    "low": 144.28,
    "high": 144.35,
    "atar": 82.15
  },
  {
    "low": 144.36,
    "high": 144.44,
    "atar": 82.2
  },
  {
    "low": 144.45,
    "high": 144.53,
    "atar": 82.25
  },
  {
    "low": 144.54,
    "high": 144.59,
    "atar": 82.3
  },
  {
    "low": 144.6,
    "high": 144.69,
    "atar": 82.35
  },
  {
    "low": 144.7,
    "high": 144.77,
    "atar": 82.4
  },
  {
    "low": 144.78,
    "high": 144.86,
    "atar": 82.45
  },
  {
    "low": 144.87,
    "high": 144.94,
    "atar": 82.5
  },
  {
    "low": 144.95,
    "high": 145.01,
    "atar": 82.55
  },
  {
    "low": 145.02,
    "high": 145.1,
    "atar": 82.6
  },
  {
    "low": 145.11,
    "high": 145.18,
    "atar": 82.65
  },
  {
    "low": 145.19,
    "high": 145.27,
    "atar": 82.7
  },
  {
    "low": 145.28,
    "high": 145.35,
    "atar": 82.75
  },
  {
    "low": 145.36,
    "high": 145.44,
    "atar": 82.8
  },
  {
    "low": 145.45,
    "high": 145.49,
    "atar": 82.85
  },
  {
    "low": 145.5,
    "high": 145.57,
    "atar": 82.9
  },
  {
    "low": 145.58,
    "high": 145.65,
    "atar": 82.95
  },
  {
    "low": 145.66,
    "high": 145.74,
    "atar": 83
  },
  {
    "low": 145.75,
    "high": 145.83,
    "atar": 83.05
  },
  {
    "low": 145.84,
    "high": 145.91,
    "atar": 83.1
  },
  {
    "low": 145.92,
    "high": 145.99,
    "atar": 83.15
  },
  {
    "low": 146,
    "high": 146.05,
    "atar": 83.2
  },
  {
    "low": 146.06,
    "high": 146.11,
    "atar": 83.25
  },
  {
    "low": 146.12,
    "high": 146.21,
    "atar": 83.3
  },
  {
    "low": 146.22,
    "high": 146.29,
    "atar": 83.35
  },
  {
    "low": 146.3,
    "high": 146.38,
    "atar": 83.4
  },
  {
    "low": 146.39,
    "high": 146.48,
    "atar": 83.45
  },
  {
    "low": 146.49,
    "high": 146.56,
    "atar": 83.5
  },
  {
    "low": 146.57,
    "high": 146.63,
    "atar": 83.55
  },
  {
    "low": 146.64,
    "high": 146.74,
    "atar": 83.6
  },
  {
    "low": 146.75,
    "high": 146.85,
    "atar": 83.65
  },
  {
    "low": 146.86,
    "high": 146.94,
    "atar": 83.7
  },
  {
    "low": 146.95,
    "high": 147.04,
    "atar": 83.75
  },
  {
    "low": 147.05,
    "high": 147.12,
    "atar": 83.8
  },
  {
    "low": 147.13,
    "high": 147.19,
    "atar": 83.85
  },
  {
    "low": 147.2,
    "high": 147.27,
    "atar": 83.9
  },
  {
    "low": 147.28,
    "high": 147.37,
    "atar": 83.95
  },
  {
    "low": 147.38,
    "high": 147.44,
    "atar": 84
  },
  {
    "low": 147.45,
    "high": 147.53,
    "atar": 84.05
  },
  {
    "low": 147.54,
    "high": 147.62,
    "atar": 84.1
  },
  {
    "low": 147.63,
    "high": 147.74,
    "atar": 84.15
  },
  {
    "low": 147.75,
    "high": 147.83,
    "atar": 84.2
  },
  {
    "low": 147.84,
    "high": 147.91,
    "atar": 84.25
  },
  {
    "low": 147.92,
    "high": 147.98,
    "atar": 84.3
  },
  {
    "low": 147.99,
    "high": 148.05,
    "atar": 84.35
  },
  {
    "low": 148.06,
    "high": 148.13,
    "atar": 84.4
  },
  {
    "low": 148.14,
    "high": 148.26,
    "atar": 84.45
  },
  {
    "low": 148.27,
    "high": 148.36,
    "atar": 84.5
  },
  {
    "low": 148.37,
    "high": 148.44,
    "atar": 84.55
  },
  {
    "low": 148.45,
    "high": 148.52,
    "atar": 84.6
  },
  {
    "low": 148.53,
    "high": 148.62,
    "atar": 84.65
  },
  {
    "low": 148.63,
    "high": 148.71,
    "atar": 84.7
  },
  {
    "low": 148.72,
    "high": 148.8,
    "atar": 84.75
  },
  {
    "low": 148.81,
    "high": 148.89,
    "atar": 84.8
  },
  {
    "low": 148.9,
    "high": 148.98,
    "atar": 84.85
  },
  {
    "low": 148.99,
    "high": 149.08,
    "atar": 84.9
  },
  {
    "low": 149.09,
    "high": 149.18,
    "atar": 84.95
  },
  {
    "low": 149.19,
    "high": 149.26,
    "atar": 85
  },
  {
    "low": 149.27,
    "high": 149.36,
    "atar": 85.05
  },
  {
    "low": 149.37,
    "high": 149.44,
    "atar": 85.1
  },
  {
    "low": 149.45,
    "high": 149.55,
    "atar": 85.15
  },
  {
    "low": 149.56,
    "high": 149.65,
    "atar": 85.2
  },
  {
    "low": 149.66,
    "high": 149.76,
    "atar": 85.25
  },
  {
    "low": 149.77,
    "high": 149.86,
    "atar": 85.3
  },
  {
    "low": 149.87,
    "high": 149.97,
    "atar": 85.35
  },
  {
    "low": 149.98,
    "high": 150.06,
    "atar": 85.4
  },
  {
    "low": 150.07,
    "high": 150.12,
    "atar": 85.45
  },
  {
    "low": 150.13,
    "high": 150.2,
    "atar": 85.5
  },
  {
    "low": 150.21,
    "high": 150.3,
    "atar": 85.55
  },
  {
    "low": 150.31,
    "high": 150.41,
    "atar": 85.6
  },
  {
    "low": 150.42,
    "high": 150.51,
    "atar": 85.65
  },
  {
    "low": 150.52,
    "high": 150.6,
    "atar": 85.7
  },
  {
    "low": 150.61,
    "high": 150.73,
    "atar": 85.75
  },
  {
    "low": 150.74,
    "high": 150.84,
    "atar": 85.8
  },
  {
    "low": 150.85,
    "high": 150.93,
    "atar": 85.85
  },
  {
    "low": 150.94,
    "high": 151,
    "atar": 85.9
  },
  {
    "low": 151.01,
    "high": 151.08,
    "atar": 85.95
  },
  {
    "low": 151.09,
    "high": 151.17,
    "atar": 86
  },
  {
    "low": 151.18,
    "high": 151.28,
    "atar": 86.05
  },
  {
    "low": 151.29,
    "high": 151.39,
    "atar": 86.1
  },
  {
    "low": 151.4,
    "high": 151.47,
    "atar": 86.15
  },
  {
    "low": 151.48,
    "high": 151.56,
    "atar": 86.2
  },
  {
    "low": 151.57,
    "high": 151.67,
    "atar": 86.25
  },
  {
    "low": 151.68,
    "high": 151.75,
    "atar": 86.3
  },
  {
    "low": 151.76,
    "high": 151.85,
    "atar": 86.35
  },
  {
    "low": 151.86,
    "high": 151.95,
    "atar": 86.4
  },
  {
    "low": 151.96,
    "high": 152.03,
    "atar": 86.45
  },
  {
    "low": 152.04,
    "high": 152.12,
    "atar": 86.5
  },
  {
    "low": 152.13,
    "high": 152.22,
    "atar": 86.55
  },
  {
    "low": 152.23,
    "high": 152.32,
    "atar": 86.6
  },
  {
    "low": 152.33,
    "high": 152.44,
    "atar": 86.65
  },
  {
    "low": 152.45,
    "high": 152.54,
    "atar": 86.7
  },
  {
    "low": 152.55,
    "high": 152.63,
    "atar": 86.75
  },
  {
    "low": 152.64,
    "high": 152.73,
    "atar": 86.8
  },
  {
    "low": 152.74,
    "high": 152.84,
    "atar": 86.85
  },
  {
    "low": 152.85,
    "high": 152.92,
    "atar": 86.9
  },
  {
    "low": 152.93,
    "high": 153.03,
    "atar": 86.95
  },
  {
    "low": 153.04,
    "high": 153.13,
    "atar": 87
  },
  {
    "low": 153.14,
    "high": 153.21,
    "atar": 87.05
  },
  {
    "low": 153.22,
    "high": 153.3,
    "atar": 87.1
  },
  {
    "low": 153.31,
    "high": 153.4,
    "atar": 87.15
  },
  {
    "low": 153.41,
    "high": 153.51,
    "atar": 87.2
  },
  {
    "low": 153.52,
    "high": 153.61,
    "atar": 87.25
  },
  {
    "low": 153.62,
    "high": 153.75,
    "atar": 87.3
  },
  {
    "low": 153.76,
    "high": 153.85,
    "atar": 87.35
  },
  {
    "low": 153.86,
    "high": 153.95,
    "atar": 87.4
  },
  {
    "low": 153.96,
    "high": 154.07,
    "atar": 87.45
  },
  {
    "low": 154.08,
    "high": 154.16,
    "atar": 87.5
  },
  {
    "low": 154.17,
    "high": 154.23,
    "atar": 87.55
  },
  {
    "low": 154.24,
    "high": 154.35,
    "atar": 87.6
  },
  {
    "low": 154.36,
    "high": 154.42,
    "atar": 87.65
  },
  {
    "low": 154.43,
    "high": 154.5,
    "atar": 87.7
  },
  {
    "low": 154.51,
    "high": 154.59,
    "atar": 87.75
  },
  {
    "low": 154.6,
    "high": 154.69,
    "atar": 87.8
  },
  {
    "low": 154.7,
    "high": 154.78,
    "atar": 87.85
  },
  {
    "low": 154.79,
    "high": 154.88,
    "atar": 87.9
  },
  {
    "low": 154.89,
    "high": 155.01,
    "atar": 87.95
  },
  {
    "low": 155.02,
    "high": 155.13,
    "atar": 88
  },
  {
    "low": 155.14,
    "high": 155.2,
    "atar": 88.05
  },
  {
    "low": 155.21,
    "high": 155.3,
    "atar": 88.1
  },
  {
    "low": 155.31,
    "high": 155.41,
    "atar": 88.15
  },
  {
    "low": 155.42,
    "high": 155.5,
    "atar": 88.2
  },
  {
    "low": 155.51,
    "high": 155.57,
    "atar": 88.25
  },
  {
    "low": 155.58,
    "high": 155.65,
    "atar": 88.3
  },
  {
    "low": 155.66,
    "high": 155.75,
    "atar": 88.35
  },
  {
    "low": 155.76,
    "high": 155.88,
    "atar": 88.4
  },
  {
    "low": 155.89,
    "high": 155.97,
    "atar": 88.45
  },
  {
    "low": 155.98,
    "high": 156.07,
    "atar": 88.5
  },
  {
    "low": 156.08,
    "high": 156.16,
    "atar": 88.55
  },
  {
    "low": 156.17,
    "high": 156.28,
    "atar": 88.6
  },
  {
    "low": 156.29,
    "high": 156.35,
    "atar": 88.65
  },
  {
    "low": 156.36,
    "high": 156.45,
    "atar": 88.7
  },
  {
    "low": 156.46,
    "high": 156.56,
    "atar": 88.75
  },
  {
    "low": 156.57,
    "high": 156.67,
    "atar": 88.8
  },
  {
    "low": 156.68,
    "high": 156.78,
    "atar": 88.85
  },
  {
    "low": 156.79,
    "high": 156.88,
    "atar": 88.9
  },
  {
    "low": 156.89,
    "high": 157.02,
    "atar": 88.95
  },
  {
    "low": 157.03,
    "high": 157.11,
    "atar": 89
  },
  {
    "low": 157.12,
    "high": 157.24,
    "atar": 89.05
  },
  {
    "low": 157.25,
    "high": 157.32,
    "atar": 89.1
  },
  {
    "low": 157.33,
    "high": 157.41,
    "atar": 89.15
  },
  {
    "low": 157.42,
    "high": 157.52,
    "atar": 89.2
  },
  {
    "low": 157.53,
    "high": 157.61,
    "atar": 89.25
  },
  {
    "low": 157.62,
    "high": 157.7,
    "atar": 89.3
  },
  {
    "low": 157.71,
    "high": 157.84,
    "atar": 89.35
  },
  {
    "low": 157.85,
    "high": 157.96,
    "atar": 89.4
  },
  {
    "low": 157.97,
    "high": 158.06,
    "atar": 89.45
  },
  {
    "low": 158.07,
    "high": 158.18,
    "atar": 89.5
  },
  {
    "low": 158.19,
    "high": 158.28,
    "atar": 89.55
  },
  {
    "low": 158.29,
    "high": 158.4,
    "atar": 89.6
  },
  {
    "low": 158.41,
    "high": 158.51,
    "atar": 89.65
  },
  {
    "low": 158.52,
    "high": 158.6,
    "atar": 89.7
  },
  {
    "low": 158.61,
    "high": 158.72,
    "atar": 89.75
  },
  {
    "low": 158.73,
    "high": 158.79,
    "atar": 89.8
  },
  {
    "low": 158.8,
    "high": 158.9,
    "atar": 89.85
  },
  {
    "low": 158.91,
    "high": 159.02,
    "atar": 89.9
  },
  {
    "low": 159.03,
    "high": 159.12,
    "atar": 89.95
  },
  {
    "low": 159.13,
    "high": 159.23,
    "atar": 90
  },
  {
    "low": 159.24,
    "high": 159.33,
    "atar": 90.05
  },
  {
    "low": 159.34,
    "high": 159.42,
    "atar": 90.1
  },
  {
    "low": 159.43,
    "high": 159.53,
    "atar": 90.15
  },
  {
    "low": 159.54,
    "high": 159.65,
    "atar": 90.2
  },
  {
    "low": 159.66,
    "high": 159.75,
    "atar": 90.25
  },
  {
    "low": 159.76,
    "high": 159.89,
    "atar": 90.3
  },
  {
    "low": 159.9,
    "high": 159.98,
    "atar": 90.35
  },
  {
    "low": 159.99,
    "high": 160.12,
    "atar": 90.4
  },
  {
    "low": 160.13,
    "high": 160.21,
    "atar": 90.45
  },
  {
    "low": 160.22,
    "high": 160.32,
    "atar": 90.5
  },
  {
    "low": 160.33,
    "high": 160.43,
    "atar": 90.55
  },
  {
    "low": 160.44,
    "high": 160.55,
    "atar": 90.6
  },
  {
    "low": 160.56,
    "high": 160.68,
    "atar": 90.65
  },
  {
    "low": 160.69,
    "high": 160.79,
    "atar": 90.7
  },
  {
    "low": 160.8,
    "high": 160.91,
    "atar": 90.75
  },
  {
    "low": 160.92,
    "high": 161.01,
    "atar": 90.8
  },
  {
    "low": 161.02,
    "high": 161.15,
    "atar": 90.85
  },
  {
    "low": 161.16,
    "high": 161.27,
    "atar": 90.9
  },
  {
    "low": 161.28,
    "high": 161.42,
    "atar": 90.95
  },
  {
    "low": 161.43,
    "high": 161.49,
    "atar": 91
  },
  {
    "low": 161.5,
    "high": 161.64,
    "atar": 91.05
  },
  {
    "low": 161.65,
    "high": 161.76,
    "atar": 91.1
  },
  {
    "low": 161.77,
    "high": 161.9,
    "atar": 91.15
  },
  {
    "low": 161.91,
    "high": 162.03,
    "atar": 91.2
  },
  {
    "low": 162.04,
    "high": 162.15,
    "atar": 91.25
  },
  {
    "low": 162.16,
    "high": 162.27,
    "atar": 91.3
  },
  {
    "low": 162.28,
    "high": 162.46,
    "atar": 91.35
  },
  {
    "low": 162.47,
    "high": 162.59,
    "atar": 91.4
  },
  {
    "low": 162.6,
    "high": 162.72,
    "atar": 91.45
  },
  {
    "low": 162.73,
    "high": 162.85,
    "atar": 91.5
  },
  {
    "low": 162.86,
    "high": 162.99,
    "atar": 91.55
  },
  {
    "low": 163,
    "high": 163.12,
    "atar": 91.6
  },
  {
    "low": 163.13,
    "high": 163.27,
    "atar": 91.65
  },
  {
    "low": 163.28,
    "high": 163.37,
    "atar": 91.7
  },
  {
    "low": 163.38,
    "high": 163.49,
    "atar": 91.75
  },
  {
    "low": 163.5,
    "high": 163.61,
    "atar": 91.8
  },
  {
    "low": 163.62,
    "high": 163.71,
    "atar": 91.85
  },
  {
    "low": 163.72,
    "high": 163.83,
    "atar": 91.9
  },
  {
    "low": 163.84,
    "high": 163.95,
    "atar": 91.95
  },
  {
    "low": 163.96,
    "high": 164.09,
    "atar": 92
  },
  {
    "low": 164.1,
    "high": 164.23,
    "atar": 92.05
  },
  {
    "low": 164.24,
    "high": 164.33,
    "atar": 92.1
  },
  {
    "low": 164.34,
    "high": 164.43,
    "atar": 92.15
  },
  {
    "low": 164.44,
    "high": 164.56,
    "atar": 92.2
  },
  {
    "low": 164.57,
    "high": 164.69,
    "atar": 92.25
  },
  {
    "low": 164.7,
    "high": 164.81,
    "atar": 92.3
  },
  {
    "low": 164.82,
    "high": 164.94,
    "atar": 92.35
  },
  {
    "low": 164.95,
    "high": 165.07,
    "atar": 92.4
  },
  {
    "low": 165.08,
    "high": 165.19,
    "atar": 92.45
  },
  {
    "low": 165.2,
    "high": 165.31,
    "atar": 92.5
  },
  {
    "low": 165.32,
    "high": 165.44,
    "atar": 92.55
  },
  {
    "low": 165.45,
    "high": 165.55,
    "atar": 92.6
  },
  {
    "low": 165.56,
    "high": 165.71,
    "atar": 92.65
  },
  {
    "low": 165.72,
    "high": 165.8,
    "atar": 92.7
  },
  {
    "low": 165.81,
    "high": 165.94,
    "atar": 92.75
  },
  {
    "low": 165.95,
    "high": 166.08,
    "atar": 92.8
  },
  {
    "low": 166.09,
    "high": 166.25,
    "atar": 92.85
  },
  {
    "low": 166.26,
    "high": 166.41,
    "atar": 92.9
  },
  {
    "low": 166.42,
    "high": 166.56,
    "atar": 92.95
  },
  {
    "low": 166.57,
    "high": 166.7,
    "atar": 93
  },
  {
    "low": 166.71,
    "high": 166.82,
    "atar": 93.05
  },
  {
    "low": 166.83,
    "high": 166.99,
    "atar": 93.1
  },
  {
    "low": 167,
    "high": 167.09,
    "atar": 93.15
  },
  {
    "low": 167.1,
    "high": 167.2,
    "atar": 93.2
  },
  {
    "low": 167.21,
    "high": 167.38,
    "atar": 93.25
  },
  {
    "low": 167.39,
    "high": 167.52,
    "atar": 93.3
  },
  {
    "low": 167.53,
    "high": 167.68,
    "atar": 93.35
  },
  {
    "low": 167.69,
    "high": 167.85,
    "atar": 93.4
  },
  {
    "low": 167.86,
    "high": 167.98,
    "atar": 93.45
  },
  {
    "low": 167.99,
    "high": 168.11,
    "atar": 93.5
  },
  {
    "low": 168.12,
    "high": 168.23,
    "atar": 93.55
  },
  {
    "low": 168.24,
    "high": 168.36,
    "atar": 93.6
  },
  {
    "low": 168.37,
    "high": 168.47,
    "atar": 93.65
  },
  {
    "low": 168.48,
    "high": 168.63,
    "atar": 93.7
  },
  {
    "low": 168.64,
    "high": 168.77,
    "atar": 93.75
  },
  {
    "low": 168.78,
    "high": 168.94,
    "atar": 93.8
  },
  {
    "low": 168.95,
    "high": 169.1,
    "atar": 93.85
  },
  {
    "low": 169.11,
    "high": 169.26,
    "atar": 93.9
  },
  {
    "low": 169.27,
    "high": 169.4,
    "atar": 93.95
  },
  {
    "low": 169.41,
    "high": 169.52,
    "atar": 94
  },
  {
    "low": 169.53,
    "high": 169.66,
    "atar": 94.05
  },
  {
    "low": 169.67,
    "high": 169.78,
    "atar": 94.1
  },
  {
    "low": 169.79,
    "high": 169.92,
    "atar": 94.15
  },
  {
    "low": 169.93,
    "high": 170.07,
    "atar": 94.2
  },
  {
    "low": 170.08,
    "high": 170.21,
    "atar": 94.25
  },
  {
    "low": 170.22,
    "high": 170.38,
    "atar": 94.3
  },
  {
    "low": 170.39,
    "high": 170.54,
    "atar": 94.35
  },
  {
    "low": 170.55,
    "high": 170.66,
    "atar": 94.4
  },
  {
    "low": 170.67,
    "high": 170.8,
    "atar": 94.45
  },
  {
    "low": 170.81,
    "high": 170.99,
    "atar": 94.5
  },
  {
    "low": 171,
    "high": 171.16,
    "atar": 94.55
  },
  {
    "low": 171.17,
    "high": 171.32,
    "atar": 94.6
  },
  {
    "low": 171.33,
    "high": 171.47,
    "atar": 94.65
  },
  {
    "low": 171.48,
    "high": 171.61,
    "atar": 94.7
  },
  {
    "low": 171.62,
    "high": 171.82,
    "atar": 94.75
  },
  {
    "low": 171.83,
    "high": 172.03,
    "atar": 94.8
  },
  {
    "low": 172.04,
    "high": 172.2,
    "atar": 94.85
  },
  {
    "low": 172.21,
    "high": 172.36,
    "atar": 94.9
  },
  {
    "low": 172.37,
    "high": 172.52,
    "atar": 94.95
  },
  {
    "low": 172.53,
    "high": 172.64,
    "atar": 95
  },
  {
    "low": 172.65,
    "high": 172.89,
    "atar": 95.05
  },
  {
    "low": 172.9,
    "high": 173.06,
    "atar": 95.1
  },
  {
    "low": 173.07,
    "high": 173.25,
    "atar": 95.15
  },
  {
    "low": 173.26,
    "high": 173.42,
    "atar": 95.2
  },
  {
    "low": 173.43,
    "high": 173.62,
    "atar": 95.25
  },
  {
    "low": 173.63,
    "high": 173.79,
    "atar": 95.3
  },
  {
    "low": 173.8,
    "high": 173.95,
    "atar": 95.35
  },
  {
    "low": 173.96,
    "high": 174.19,
    "atar": 95.4
  },
  {
    "low": 174.2,
    "high": 174.38,
    "atar": 95.45
  },
  {
    "low": 174.39,
    "high": 174.56,
    "atar": 95.5
  },
  {
    "low": 174.57,
    "high": 174.76,
    "atar": 95.55
  },
  {
    "low": 174.77,
    "high": 174.93,
    "atar": 95.6
  },
  {
    "low": 174.94,
    "high": 175.12,
    "atar": 95.65
  },
  {
    "low": 175.13,
    "high": 175.33,
    "atar": 95.7
  },
  {
    "low": 175.34,
    "high": 175.53,
    "atar": 95.75
  },
  {
    "low": 175.54,
    "high": 175.67,
    "atar": 95.8
  },
  {
    "low": 175.68,
    "high": 175.85,
    "atar": 95.85
  },
  {
    "low": 175.86,
    "high": 176.03,
    "atar": 95.9
  },
  {
    "low": 176.04,
    "high": 176.15,
    "atar": 95.95
  },
  {
    "low": 176.16,
    "high": 176.3,
    "atar": 96
  },
  {
    "low": 176.31,
    "high": 176.46,
    "atar": 96.05
  },
  {
    "low": 176.47,
    "high": 176.61,
    "atar": 96.1
  },
  {
    "low": 176.62,
    "high": 176.79,
    "atar": 96.15
  },
  {
    "low": 176.8,
    "high": 176.98,
    "atar": 96.2
  },
  {
    "low": 176.99,
    "high": 177.21,
    "atar": 96.25
  },
  {
    "low": 177.22,
    "high": 177.45,
    "atar": 96.3
  },
  {
    "low": 177.46,
    "high": 177.64,
    "atar": 96.35
  },
  {
    "low": 177.65,
    "high": 177.84,
    "atar": 96.4
  },
  {
    "low": 177.85,
    "high": 178.04,
    "atar": 96.45
  },
  {
    "low": 178.05,
    "high": 178.25,
    "atar": 96.5
  },
  {
    "low": 178.26,
    "high": 178.48,
    "atar": 96.55
  },
  {
    "low": 178.49,
    "high": 178.71,
    "atar": 96.6
  },
  {
    "low": 178.72,
    "high": 178.89,
    "atar": 96.65
  },
  {
    "low": 178.9,
    "high": 179.16,
    "atar": 96.7
  },
  {
    "low": 179.17,
    "high": 179.32,
    "atar": 96.75
  },
  {
    "low": 179.33,
    "high": 179.55,
    "atar": 96.8
  },
  {
    "low": 179.56,
    "high": 179.81,
    "atar": 96.85
  },
  {
    "low": 179.82,
    "high": 180.07,
    "atar": 96.9
  },
  {
    "low": 180.08,
    "high": 180.3,
    "atar": 96.95
  },
  {
    "low": 180.31,
    "high": 180.55,
    "atar": 97
  },
  {
    "low": 180.56,
    "high": 180.79,
    "atar": 97.05
  },
  {
    "low": 180.8,
    "high": 181.15,
    "atar": 97.1
  },
  {
    "low": 181.16,
    "high": 181.41,
    "atar": 97.15
  },
  {
    "low": 181.42,
    "high": 181.71,
    "atar": 97.2
  },
  {
    "low": 181.72,
    "high": 181.91,
    "atar": 97.25
  },
  {
    "low": 181.92,
    "high": 182.14,
    "atar": 97.3
  },
  {
    "low": 182.15,
    "high": 182.34,
    "atar": 97.35
  },
  {
    "low": 182.35,
    "high": 182.57,
    "atar": 97.4
  },
  {
    "low": 182.58,
    "high": 182.74,
    "atar": 97.45
  },
  {
    "low": 182.75,
    "high": 182.96,
    "atar": 97.5
  },
  {
    "low": 182.97,
    "high": 183.26,
    "atar": 97.55
  },
  {
    "low": 183.27,
    "high": 183.52,
    "atar": 97.6
  },
  {
    "low": 183.53,
    "high": 183.77,
    "atar": 97.65
  },
  {
    "low": 183.78,
    "high": 184.05,
    "atar": 97.7
  },
  {
    "low": 184.06,
    "high": 184.3,
    "atar": 97.75
  },
  {
    "low": 184.31,
    "high": 184.62,
    "atar": 97.8
  },
  {
    "low": 184.63,
    "high": 184.93,
    "atar": 97.85
  },
  {
    "low": 184.94,
    "high": 185.18,
    "atar": 97.9
  },
  {
    "low": 185.19,
    "high": 185.51,
    "atar": 97.95
  },
  {
    "low": 185.52,
    "high": 185.76,
    "atar": 98
  },
  {
    "low": 185.77,
    "high": 186.07,
    "atar": 98.05
  },
  {
    "low": 186.08,
    "high": 186.37,
    "atar": 98.1
  },
  {
    "low": 186.38,
    "high": 186.69,
    "atar": 98.15
  },
  {
    "low": 186.7,
    "high": 186.93,
    "atar": 98.2
  },
  {
    "low": 186.94,
    "high": 187.3,
    "atar": 98.25
  },
  {
    "low": 187.31,
    "high": 187.61,
    "atar": 98.3
  },
  {
    "low": 187.62,
    "high": 187.96,
    "atar": 98.35
  },
  {
    "low": 187.97,
    "high": 188.16,
    "atar": 98.4
  },
  {
    "low": 188.17,
    "high": 188.46,
    "atar": 98.45
  },
  {
    "low": 188.47,
    "high": 188.72,
    "atar": 98.5
  },
  {
    "low": 188.73,
    "high": 189.09,
    "atar": 98.55
  },
  {
    "low": 189.1,
    "high": 189.54,
    "atar": 98.6
  },
  {
    "low": 189.55,
    "high": 189.92,
    "atar": 98.65
  },
  {
    "low": 189.93,
    "high": 190.3,
    "atar": 98.7
  },
  {
    "low": 190.31,
    "high": 190.84,
    "atar": 98.75
  },
  {
    "low": 190.85,
    "high": 191.32,
    "atar": 98.8
  },
  {
    "low": 191.33,
    "high": 191.71,
    "atar": 98.85
  },
  {
    "low": 191.72,
    "high": 192.22,
    "atar": 98.9
  },
  {
    "low": 192.23,
    "high": 192.66,
    "atar": 98.95
  },
  {
    "low": 192.67,
    "high": 193.01,
    "atar": 99
  },
  {
    "low": 193.02,
    "high": 193.4,
    "atar": 99.05
  },
  {
    "low": 193.41,
    "high": 193.96,
    "atar": 99.1
  },
  {
    "low": 193.97,
    "high": 194.55,
    "atar": 99.15
  },
  {
    "low": 194.56,
    "high": 194.99,
    "atar": 99.2
  },
  {
    "low": 195,
    "high": 195.55,
    "atar": 99.25
  },
  {
    "low": 195.56,
    "high": 196.05,
    "atar": 99.3
  },
  {
    "low": 196.06,
    "high": 196.83,
    "atar": 99.35
  },
  {
    "low": 196.84,
    "high": 197.55,
    "atar": 99.4
  },
  {
    "low": 197.56,
    "high": 198.42,
    "atar": 99.45
  },
  {
    "low": 198.43,
    "high": 199.22,
    "atar": 99.5
  },
  {
    "low": 199.23,
    "high": 200.16,
    "atar": 99.55
  },
  {
    "low": 200.17,
    "high": 201.27,
    "atar": 99.6
  },
  {
    "low": 201.28,
    "high": 202.34,
    "atar": 99.65
  },
  {
    "low": 202.35,
    "high": 203.6,
    "atar": 99.7
  },
  {
    "low": 203.61,
    "high": 205.05,
    "atar": 99.75
  },
  {
    "low": 205.06,
    "high": 206.9,
    "atar": 99.8
  },
  {
    "low": 206.91,
    "high": 208.56,
    "atar": 99.85
  },
  {
    "low": 208.57,
    "high": 210.95,
    "atar": 99.9
  },
  {
    "low": 210.96,
    "high": 240,
    "atar": 99.95
  }
]
